{
    "Oid": "39690037-ABE6-43D1-8AAB-CD4DA24A216B",
    "Name": "Model_Property_ListView",
    "ID_Model": "00F4342C-BB85-4E56-AF82-4D5342627A50",
    "DataSource": "SELECT * FROM _vModel_Property",
    "Comment": null,
    "ID_DetailView": "20E7A54D-EBA0-485F-A65A-948CACCA7418",
    "Model": "Model_Property",
    "PrimaryKey": "Oid",
    "Caption": "Model Property",
    "Details": [
        {
            "ID_PropertyType": 2,
            "Precision": null,
            "$DataSource": "SELECT ID, Name FROM _tPropertyType",
            "DisplayProperty": "PropertyType",
            "Oid": "B5BDE190-6490-40F4-8DA5-07B66A0D233A",
            "Code": null,
            "Name": "ID_PropertyType",
            "IsActive": true,
            "Comment": null,
            "Caption": "Property Type",
            "ID_ModelProperty": "1D5420B5-CE1D-44A5-A89A-4B05160184DC",
            "ID_ListView": "39690037-ABE6-43D1-8AAB-CD4DA24A216B",
            "ID_CreatedBy": 1,
            "ID_LastModifiedBy": 1,
            "DateCreated": "2017-12-19T17:46:16.317Z",
            "DateModified": null,
            "DataSource": "oN42o4NqBOpMdRf/FTkHEhUF49U7qNwXYdVZMrvfhAbXYsnjCD6jBxJUbqzgDCg5",
            "Format": null,
            "Width": "235",
            "Fixed": null,
            "VisibleIndex": 600,
            "IsAllowEdit": true,
            "ID_ControlType": 9,
            "ID_ColumnAlignment": null,
            "IsVisible": true,
            "FixedPosition": null,
            "IsRequired": null,
            "ID_SummaryType": null,
            "IsAddModelClass": null,
            "GroupIndex": 0,
            "IsFilter": null,
            "ID_FilterControlType": null,
            "ID_PropertyModel": "B8FC3C30-6F07-419A-B236-15D592070102",
            "PropertyModel": "PropertyType",
            "SummaryType": null
        },
        {
            "ID_PropertyType": 5,
            "Precision": null,
            "$DataSource": null,
            "DisplayProperty": null,
            "Oid": "8FF5620A-75BA-49D4-A49F-12B3F1BFE00F",
            "Code": null,
            "Name": "DateModified",
            "IsActive": true,
            "Comment": null,
            "Caption": "Date Modified",
            "ID_ModelProperty": "BD0FF4A2-9118-4B90-A980-9AA3EF608881",
            "ID_ListView": "39690037-ABE6-43D1-8AAB-CD4DA24A216B",
            "ID_CreatedBy": 1,
            "ID_LastModifiedBy": 1,
            "DateCreated": "2017-12-19T17:46:16.317Z",
            "DateModified": null,
            "DataSource": null,
            "Format": null,
            "Width": "150",
            "Fixed": null,
            "VisibleIndex": 1000,
            "IsAllowEdit": null,
            "ID_ControlType": null,
            "ID_ColumnAlignment": null,
            "IsVisible": false,
            "FixedPosition": null,
            "IsRequired": null,
            "ID_SummaryType": null,
            "IsAddModelClass": null,
            "GroupIndex": 0,
            "IsFilter": null,
            "ID_FilterControlType": null,
            "ID_PropertyModel": null,
            "PropertyModel": null,
            "SummaryType": null
        },
        {
            "ID_PropertyType": 4,
            "Precision": null,
            "$DataSource": null,
            "DisplayProperty": null,
            "Oid": "2D2F2F27-A38D-456F-BE62-32E28FA0FCA4",
            "Code": null,
            "Name": "IsActive",
            "IsActive": true,
            "Comment": null,
            "Caption": "Active",
            "ID_ModelProperty": "44AB2AA4-45A8-4F5E-B526-E2842728C003",
            "ID_ListView": "39690037-ABE6-43D1-8AAB-CD4DA24A216B",
            "ID_CreatedBy": 1,
            "ID_LastModifiedBy": 1,
            "DateCreated": "2017-12-19T17:46:16.317Z",
            "DateModified": null,
            "DataSource": null,
            "Format": null,
            "Width": "87",
            "Fixed": null,
            "VisibleIndex": 300,
            "IsAllowEdit": null,
            "ID_ControlType": null,
            "ID_ColumnAlignment": null,
            "IsVisible": true,
            "FixedPosition": null,
            "IsRequired": null,
            "ID_SummaryType": null,
            "IsAddModelClass": null,
            "GroupIndex": 0,
            "IsFilter": null,
            "ID_FilterControlType": null,
            "ID_PropertyModel": null,
            "PropertyModel": null,
            "SummaryType": null
        },
        {
            "ID_PropertyType": 2,
            "Precision": null,
            "$DataSource": null,
            "DisplayProperty": "LastModifiedBy",
            "Oid": "142734EE-0E2D-4C1E-8941-523A12A8FE07",
            "Code": null,
            "Name": "ID_LastModifiedBy",
            "IsActive": true,
            "Comment": null,
            "Caption": "Last Modified By",
            "ID_ModelProperty": "A1D4A2AA-E06C-4B2D-A2DC-695BA62E7D01",
            "ID_ListView": "39690037-ABE6-43D1-8AAB-CD4DA24A216B",
            "ID_CreatedBy": 1,
            "ID_LastModifiedBy": 1,
            "DateCreated": "2017-12-19T17:46:16.317Z",
            "DateModified": null,
            "DataSource": null,
            "Format": null,
            "Width": "150",
            "Fixed": null,
            "VisibleIndex": 1100,
            "IsAllowEdit": null,
            "ID_ControlType": null,
            "ID_ColumnAlignment": null,
            "IsVisible": false,
            "FixedPosition": null,
            "IsRequired": null,
            "ID_SummaryType": null,
            "IsAddModelClass": null,
            "GroupIndex": 0,
            "IsFilter": null,
            "ID_FilterControlType": null,
            "ID_PropertyModel": null,
            "PropertyModel": null,
            "SummaryType": null
        },
        {
            "ID_PropertyType": 8,
            "Precision": null,
            "$DataSource": null,
            "DisplayProperty": "Model",
            "Oid": "82EF7047-14A9-4246-9658-75BB05048D0A",
            "Code": null,
            "Name": "ID_Model",
            "IsActive": true,
            "Comment": null,
            "Caption": "Model",
            "ID_ModelProperty": "178BE54F-F408-42CE-9534-EF726E5DD2B8",
            "ID_ListView": "39690037-ABE6-43D1-8AAB-CD4DA24A216B",
            "ID_CreatedBy": 1,
            "ID_LastModifiedBy": 1,
            "DateCreated": "2017-12-19T17:46:16.317Z",
            "DateModified": null,
            "DataSource": null,
            "Format": null,
            "Width": "215",
            "Fixed": null,
            "VisibleIndex": 200,
            "IsAllowEdit": null,
            "ID_ControlType": null,
            "ID_ColumnAlignment": null,
            "IsVisible": true,
            "FixedPosition": null,
            "IsRequired": null,
            "ID_SummaryType": null,
            "IsAddModelClass": null,
            "GroupIndex": 0,
            "IsFilter": null,
            "ID_FilterControlType": null,
            "ID_PropertyModel": null,
            "PropertyModel": null,
            "SummaryType": null
        },
        {
            "ID_PropertyType": 2,
            "Precision": null,
            "$DataSource": null,
            "DisplayProperty": "CreatedBy",
            "Oid": "6D15BBE5-BD45-4DA3-8F98-7A473EE68E6E",
            "Code": null,
            "Name": "ID_CreatedBy",
            "IsActive": true,
            "Comment": null,
            "Caption": "Created By",
            "ID_ModelProperty": "0A21795C-27D2-4436-B6F8-398B34914970",
            "ID_ListView": "39690037-ABE6-43D1-8AAB-CD4DA24A216B",
            "ID_CreatedBy": 1,
            "ID_LastModifiedBy": 1,
            "DateCreated": "2017-12-19T17:46:16.317Z",
            "DateModified": null,
            "DataSource": null,
            "Format": null,
            "Width": "150",
            "Fixed": null,
            "VisibleIndex": 1200,
            "IsAllowEdit": null,
            "ID_ControlType": null,
            "ID_ColumnAlignment": null,
            "IsVisible": false,
            "FixedPosition": null,
            "IsRequired": null,
            "ID_SummaryType": null,
            "IsAddModelClass": null,
            "GroupIndex": 0,
            "IsFilter": null,
            "ID_FilterControlType": null,
            "ID_PropertyModel": null,
            "PropertyModel": null,
            "SummaryType": null
        },
        {
            "ID_PropertyType": 5,
            "Precision": null,
            "$DataSource": null,
            "DisplayProperty": null,
            "Oid": "084940B9-91DC-49B6-9E8D-B01F8E8AEE90",
            "Code": null,
            "Name": "DateCreated",
            "IsActive": true,
            "Comment": null,
            "Caption": "Date Created",
            "ID_ModelProperty": "FC4873D3-27E0-4334-AFB3-FEA8334CC580",
            "ID_ListView": "39690037-ABE6-43D1-8AAB-CD4DA24A216B",
            "ID_CreatedBy": 1,
            "ID_LastModifiedBy": 1,
            "DateCreated": "2017-12-19T17:46:16.317Z",
            "DateModified": null,
            "DataSource": null,
            "Format": null,
            "Width": "150",
            "Fixed": null,
            "VisibleIndex": 1300,
            "IsAllowEdit": null,
            "ID_ControlType": null,
            "ID_ColumnAlignment": null,
            "IsVisible": false,
            "FixedPosition": null,
            "IsRequired": null,
            "ID_SummaryType": null,
            "IsAddModelClass": null,
            "GroupIndex": 0,
            "IsFilter": null,
            "ID_FilterControlType": null,
            "ID_PropertyModel": null,
            "PropertyModel": null,
            "SummaryType": null
        },
        {
            "ID_PropertyType": 1,
            "Precision": null,
            "$DataSource": null,
            "DisplayProperty": null,
            "Oid": "9401B8B0-D163-42AC-9DE2-B3B6DCE4C76B",
            "Code": null,
            "Name": "Caption",
            "IsActive": true,
            "Comment": null,
            "Caption": null,
            "ID_ModelProperty": "CFD40AAB-3EAA-4D9B-8AA8-B10C36D19009",
            "ID_ListView": "39690037-ABE6-43D1-8AAB-CD4DA24A216B",
            "ID_CreatedBy": 1,
            "ID_LastModifiedBy": 1,
            "DateCreated": "2017-12-19T17:46:16.317Z",
            "DateModified": null,
            "DataSource": null,
            "Format": null,
            "Width": "179",
            "Fixed": null,
            "VisibleIndex": 400,
            "IsAllowEdit": null,
            "ID_ControlType": null,
            "ID_ColumnAlignment": null,
            "IsVisible": true,
            "FixedPosition": null,
            "IsRequired": null,
            "ID_SummaryType": null,
            "IsAddModelClass": null,
            "GroupIndex": 0,
            "IsFilter": null,
            "ID_FilterControlType": null,
            "ID_PropertyModel": null,
            "PropertyModel": null,
            "SummaryType": null
        },
        {
            "ID_PropertyType": 8,
            "Precision": null,
            "$DataSource": null,
            "DisplayProperty": null,
            "Oid": "ED8A0468-20D9-4158-8A17-CCE26929EE6B",
            "Code": null,
            "Name": "Oid",
            "IsActive": true,
            "Comment": null,
            "Caption": null,
            "ID_ModelProperty": "6E96D58D-8749-41E7-810F-C10E587B0C29",
            "ID_ListView": "39690037-ABE6-43D1-8AAB-CD4DA24A216B",
            "ID_CreatedBy": 1,
            "ID_LastModifiedBy": 1,
            "DateCreated": "2017-12-19T17:46:16.317Z",
            "DateModified": null,
            "DataSource": null,
            "Format": null,
            "Width": "57",
            "Fixed": true,
            "VisibleIndex": 0,
            "IsAllowEdit": null,
            "ID_ControlType": null,
            "ID_ColumnAlignment": null,
            "IsVisible": true,
            "FixedPosition": null,
            "IsRequired": null,
            "ID_SummaryType": null,
            "IsAddModelClass": null,
            "GroupIndex": 0,
            "IsFilter": null,
            "ID_FilterControlType": null,
            "ID_PropertyModel": null,
            "PropertyModel": null,
            "SummaryType": null
        },
        {
            "ID_PropertyType": 1,
            "Precision": null,
            "$DataSource": null,
            "DisplayProperty": null,
            "Oid": "E5F52DF0-5BDA-4617-A2F1-D1841CDF32F7",
            "Code": null,
            "Name": "Name",
            "IsActive": true,
            "Comment": null,
            "Caption": null,
            "ID_ModelProperty": "EFF382DF-D118-4614-B5F1-C35FF36AC3CF",
            "ID_ListView": "39690037-ABE6-43D1-8AAB-CD4DA24A216B",
            "ID_CreatedBy": 1,
            "ID_LastModifiedBy": 1,
            "DateCreated": "2017-12-19T17:46:16.317Z",
            "DateModified": null,
            "DataSource": null,
            "Format": null,
            "Width": "162",
            "Fixed": null,
            "VisibleIndex": 100,
            "IsAllowEdit": true,
            "ID_ControlType": null,
            "ID_ColumnAlignment": null,
            "IsVisible": true,
            "FixedPosition": null,
            "IsRequired": null,
            "ID_SummaryType": null,
            "IsAddModelClass": null,
            "GroupIndex": 0,
            "IsFilter": null,
            "ID_FilterControlType": null,
            "ID_PropertyModel": null,
            "PropertyModel": null,
            "SummaryType": null
        },
        {
            "ID_PropertyType": 8,
            "Precision": null,
            "$DataSource": null,
            "DisplayProperty": null,
            "Oid": "C418BBF0-5FD6-44B2-8EDF-B01C024B5D11",
            "Code": null,
            "Name": "ID_PropertyModel",
            "IsActive": true,
            "Comment": null,
            "Caption": "Property Model",
            "ID_ModelProperty": "CCB12898-8B12-457C-91F5-2C7F5185533D",
            "ID_ListView": "39690037-ABE6-43D1-8AAB-CD4DA24A216B",
            "ID_CreatedBy": 1,
            "ID_LastModifiedBy": 1,
            "DateCreated": "2017-12-27T16:47:02.557Z",
            "DateModified": null,
            "DataSource": null,
            "Format": null,
            "Width": "273",
            "Fixed": null,
            "VisibleIndex": 500,
            "IsAllowEdit": null,
            "ID_ControlType": null,
            "ID_ColumnAlignment": null,
            "IsVisible": true,
            "FixedPosition": null,
            "IsRequired": null,
            "ID_SummaryType": null,
            "IsAddModelClass": null,
            "GroupIndex": 0,
            "IsFilter": null,
            "ID_FilterControlType": null,
            "ID_PropertyModel": "669EE4AC-077D-438A-A410-B323B74173C4",
            "PropertyModel": "Model",
            "SummaryType": null
        },
        {
            "ID_PropertyType": 8,
            "Precision": null,
            "$DataSource": null,
            "DisplayProperty": null,
            "Oid": "00525D5E-18A2-4C09-BA28-717A36DB522C",
            "Code": null,
            "Name": "ID_ModelProperty_Key",
            "IsActive": true,
            "Comment": null,
            "Caption": "Property Key",
            "ID_ModelProperty": "F62EC905-F508-407C-91BA-7D445A5FAD04",
            "ID_ListView": "39690037-ABE6-43D1-8AAB-CD4DA24A216B",
            "ID_CreatedBy": 1,
            "ID_LastModifiedBy": 1,
            "DateCreated": "2018-01-03T15:48:05.410Z",
            "DateModified": null,
            "DataSource": null,
            "Format": null,
            "Width": "273",
            "Fixed": null,
            "VisibleIndex": 700,
            "IsAllowEdit": null,
            "ID_ControlType": null,
            "ID_ColumnAlignment": null,
            "IsVisible": true,
            "FixedPosition": null,
            "IsRequired": null,
            "ID_SummaryType": null,
            "IsAddModelClass": null,
            "GroupIndex": 0,
            "IsFilter": null,
            "ID_FilterControlType": null,
            "ID_PropertyModel": null,
            "PropertyModel": null,
            "SummaryType": null
        },
        {
            "ID_PropertyType": 1,
            "Precision": null,
            "$DataSource": null,
            "DisplayProperty": null,
            "Oid": "C7816BEA-B2A7-4BF8-AF0A-C30AB9B14EEA",
            "Code": null,
            "Name": "DefaultValue",
            "IsActive": true,
            "Comment": null,
            "Caption": null,
            "ID_ModelProperty": "0A9BEFF0-52DC-4DCD-8F1A-C37CCEDE5A10",
            "ID_ListView": "39690037-ABE6-43D1-8AAB-CD4DA24A216B",
            "ID_CreatedBy": 1,
            "ID_LastModifiedBy": 1,
            "DateCreated": "2018-02-17T21:44:19.570Z",
            "DateModified": null,
            "DataSource": null,
            "Format": null,
            "Width": "150",
            "Fixed": null,
            "VisibleIndex": 500,
            "IsAllowEdit": null,
            "ID_ControlType": null,
            "ID_ColumnAlignment": null,
            "IsVisible": false,
            "FixedPosition": null,
            "IsRequired": null,
            "ID_SummaryType": null,
            "IsAddModelClass": null,
            "GroupIndex": 0,
            "IsFilter": null,
            "ID_FilterControlType": null,
            "ID_PropertyModel": null,
            "PropertyModel": null,
            "SummaryType": null
        },
        {
            "ID_PropertyType": 4,
            "Precision": null,
            "$DataSource": null,
            "DisplayProperty": null,
            "Oid": "561E4815-D2DA-41E5-BCE9-8EEBB5F77B10",
            "Code": null,
            "Name": "IsAggregated",
            "IsActive": true,
            "Comment": null,
            "Caption": null,
            "ID_ModelProperty": "E013358A-252A-4872-AF1A-3A2206A9E40F",
            "ID_ListView": "39690037-ABE6-43D1-8AAB-CD4DA24A216B",
            "ID_CreatedBy": 1,
            "ID_LastModifiedBy": 1,
            "DateCreated": "2018-02-24T21:38:59.000Z",
            "DateModified": null,
            "DataSource": null,
            "Format": null,
            "Width": "150",
            "Fixed": null,
            "VisibleIndex": 300,
            "IsAllowEdit": null,
            "ID_ControlType": null,
            "ID_ColumnAlignment": null,
            "IsVisible": false,
            "FixedPosition": null,
            "IsRequired": null,
            "ID_SummaryType": null,
            "IsAddModelClass": null,
            "GroupIndex": 0,
            "IsFilter": null,
            "ID_FilterControlType": null,
            "ID_PropertyModel": null,
            "PropertyModel": null,
            "SummaryType": null
        },
        {
            "ID_PropertyType": 1,
            "Precision": null,
            "$DataSource": null,
            "DisplayProperty": null,
            "Oid": "C80B0F09-CB7A-493B-A676-1DFA0E51AA5D",
            "Code": null,
            "Name": "DisplayProperty",
            "IsActive": true,
            "Comment": null,
            "Caption": null,
            "ID_ModelProperty": "0627B7C5-C246-443B-945B-4DE5B80D1D23",
            "ID_ListView": "39690037-ABE6-43D1-8AAB-CD4DA24A216B",
            "ID_CreatedBy": 1,
            "ID_LastModifiedBy": 1,
            "DateCreated": "2018-02-25T13:27:02.947Z",
            "DateModified": null,
            "DataSource": null,
            "Format": null,
            "Width": "150",
            "Fixed": null,
            "VisibleIndex": 200,
            "IsAllowEdit": null,
            "ID_ControlType": null,
            "ID_ColumnAlignment": null,
            "IsVisible": false,
            "FixedPosition": null,
            "IsRequired": null,
            "ID_SummaryType": null,
            "IsAddModelClass": null,
            "GroupIndex": 0,
            "IsFilter": null,
            "ID_FilterControlType": null,
            "ID_PropertyModel": null,
            "PropertyModel": null,
            "SummaryType": null
        }
    ]
}