{
    "Oid": "EC5E4676-16EC-4D75-B61B-79BC4C0CECFD",
    "Name": "PurchaseOrder_ListView",
    "ID_Model": "1ADEBF4B-5D09-4E7A-B00A-46305304B326",
    "DataSource": "SELECT * FROM dbo.vPurchaseOrder",
    "Comment": null,
    "ID_DetailView": "1D823500-3B9F-4985-A89E-CAF97370CF93",
    "Model": "PurchaseOrder",
    "PrimaryKey": "ID",
    "Caption": "Purchase Order",
    "Details": [
        {
            "ID_PropertyType": 4,
            "Precision": null,
            "$DataSource": null,
            "DisplayProperty": null,
            "Oid": "3BCF2949-DBA8-4960-8702-1C5A25F8EBD1",
            "Code": null,
            "Name": "IsActive",
            "IsActive": true,
            "Comment": null,
            "Caption": "Active",
            "ID_ModelProperty": "C0FB76E5-F158-463C-8F94-BB4D95B5F319",
            "ID_ListView": "EC5E4676-16EC-4D75-B61B-79BC4C0CECFD",
            "ID_CreatedBy": 1,
            "ID_LastModifiedBy": 1,
            "DateCreated": "2020-08-11T12:07:07.283Z",
            "DateModified": null,
            "DataSource": null,
            "Format": null,
            "Width": "150",
            "Fixed": null,
            "VisibleIndex": 600,
            "IsAllowEdit": null,
            "ID_ControlType": null,
            "ID_ColumnAlignment": null,
            "IsVisible": false,
            "FixedPosition": null,
            "IsRequired": null,
            "ID_SummaryType": null,
            "IsAddModelClass": null,
            "GroupIndex": 0,
            "IsFilter": null,
            "ID_FilterControlType": null,
            "ID_PropertyModel": null,
            "PropertyModel": null,
            "SummaryType": null
        },
        {
            "ID_PropertyType": 2,
            "Precision": null,
            "$DataSource": null,
            "DisplayProperty": null,
            "Oid": "FA7380E0-B8E6-49B8-BEC0-2C99AF469CED",
            "Code": null,
            "Name": "ID_Company",
            "IsActive": true,
            "Comment": null,
            "Caption": null,
            "ID_ModelProperty": "21C84160-B9CF-44B2-9FFF-874E3A8C3F4C",
            "ID_ListView": "EC5E4676-16EC-4D75-B61B-79BC4C0CECFD",
            "ID_CreatedBy": 1,
            "ID_LastModifiedBy": 1,
            "DateCreated": "2020-08-11T12:07:07.283Z",
            "DateModified": null,
            "DataSource": null,
            "Format": null,
            "Width": "150",
            "Fixed": null,
            "VisibleIndex": 600,
            "IsAllowEdit": null,
            "ID_ControlType": null,
            "ID_ColumnAlignment": null,
            "IsVisible": false,
            "FixedPosition": null,
            "IsRequired": null,
            "ID_SummaryType": null,
            "IsAddModelClass": null,
            "GroupIndex": 0,
            "IsFilter": null,
            "ID_FilterControlType": null,
            "ID_PropertyModel": null,
            "PropertyModel": null,
            "SummaryType": null
        },
        {
            "ID_PropertyType": 1,
            "Precision": null,
            "$DataSource": null,
            "DisplayProperty": null,
            "Oid": "E03D73FF-1C08-455E-AD7E-31D65F89A56F",
            "Code": null,
            "Name": "Name",
            "IsActive": true,
            "Comment": null,
            "Caption": null,
            "ID_ModelProperty": "7F659EA9-6C9F-4379-9B28-913B64AB44CC",
            "ID_ListView": "EC5E4676-16EC-4D75-B61B-79BC4C0CECFD",
            "ID_CreatedBy": 1,
            "ID_LastModifiedBy": 1,
            "DateCreated": "2020-08-11T12:07:07.283Z",
            "DateModified": null,
            "DataSource": null,
            "Format": null,
            "Width": "150",
            "Fixed": null,
            "VisibleIndex": 200,
            "IsAllowEdit": null,
            "ID_ControlType": null,
            "ID_ColumnAlignment": null,
            "IsVisible": false,
            "FixedPosition": null,
            "IsRequired": null,
            "ID_SummaryType": null,
            "IsAddModelClass": null,
            "GroupIndex": 0,
            "IsFilter": null,
            "ID_FilterControlType": null,
            "ID_PropertyModel": null,
            "PropertyModel": null,
            "SummaryType": null
        },
        {
            "ID_PropertyType": 5,
            "Precision": null,
            "$DataSource": null,
            "DisplayProperty": null,
            "Oid": "845F4A77-69FC-44B5-ABAD-4C222E540E7F",
            "Code": null,
            "Name": "DateModified",
            "IsActive": true,
            "Comment": null,
            "Caption": "Date Modified",
            "ID_ModelProperty": "DB37E8FC-A601-4DEB-9791-6F5F3A873E39",
            "ID_ListView": "EC5E4676-16EC-4D75-B61B-79BC4C0CECFD",
            "ID_CreatedBy": 1,
            "ID_LastModifiedBy": 1,
            "DateCreated": "2020-08-11T12:07:07.283Z",
            "DateModified": null,
            "DataSource": null,
            "Format": null,
            "Width": "150",
            "Fixed": null,
            "VisibleIndex": 800,
            "IsAllowEdit": null,
            "ID_ControlType": null,
            "ID_ColumnAlignment": null,
            "IsVisible": true,
            "FixedPosition": null,
            "IsRequired": null,
            "ID_SummaryType": null,
            "IsAddModelClass": null,
            "GroupIndex": 0,
            "IsFilter": null,
            "ID_FilterControlType": null,
            "ID_PropertyModel": null,
            "PropertyModel": null,
            "SummaryType": null
        },
        {
            "ID_PropertyType": 2,
            "Precision": null,
            "$DataSource": null,
            "DisplayProperty": null,
            "Oid": "3A539F2A-A337-4FE6-AC98-4CF39E82F45F",
            "Code": null,
            "Name": "ID",
            "IsActive": true,
            "Comment": null,
            "Caption": null,
            "ID_ModelProperty": "407245B8-ED17-4B34-8362-F4CCBDCEF14C",
            "ID_ListView": "EC5E4676-16EC-4D75-B61B-79BC4C0CECFD",
            "ID_CreatedBy": 1,
            "ID_LastModifiedBy": 1,
            "DateCreated": "2020-08-11T12:07:07.283Z",
            "DateModified": null,
            "DataSource": null,
            "Format": null,
            "Width": "82",
            "Fixed": null,
            "VisibleIndex": 0,
            "IsAllowEdit": null,
            "ID_ControlType": null,
            "ID_ColumnAlignment": null,
            "IsVisible": true,
            "FixedPosition": null,
            "IsRequired": null,
            "ID_SummaryType": null,
            "IsAddModelClass": null,
            "GroupIndex": 0,
            "IsFilter": null,
            "ID_FilterControlType": null,
            "ID_PropertyModel": null,
            "PropertyModel": null,
            "SummaryType": null
        },
        {
            "ID_PropertyType": 2,
            "Precision": null,
            "$DataSource": null,
            "DisplayProperty": "CreatedBy",
            "Oid": "28396C42-361C-4DE3-A025-522CF0CA4FB4",
            "Code": null,
            "Name": "ID_CreatedBy",
            "IsActive": true,
            "Comment": null,
            "Caption": "Created By",
            "ID_ModelProperty": "597133F5-9219-493D-8711-774824102343",
            "ID_ListView": "EC5E4676-16EC-4D75-B61B-79BC4C0CECFD",
            "ID_CreatedBy": 1,
            "ID_LastModifiedBy": 1,
            "DateCreated": "2020-08-11T12:07:07.283Z",
            "DateModified": null,
            "DataSource": null,
            "Format": null,
            "Width": "150",
            "Fixed": null,
            "VisibleIndex": 700,
            "IsAllowEdit": null,
            "ID_ControlType": null,
            "ID_ColumnAlignment": null,
            "IsVisible": true,
            "FixedPosition": null,
            "IsRequired": null,
            "ID_SummaryType": null,
            "IsAddModelClass": null,
            "GroupIndex": 0,
            "IsFilter": null,
            "ID_FilterControlType": null,
            "ID_PropertyModel": null,
            "PropertyModel": null,
            "SummaryType": null
        },
        {
            "ID_PropertyType": 5,
            "Precision": null,
            "$DataSource": null,
            "DisplayProperty": null,
            "Oid": "923697BB-020E-4917-A1AB-5445B4455CBA",
            "Code": null,
            "Name": "DateCreated",
            "IsActive": true,
            "Comment": null,
            "Caption": "Date Created",
            "ID_ModelProperty": "CA24B3F9-D0D5-4FF3-B588-4481C43E585D",
            "ID_ListView": "EC5E4676-16EC-4D75-B61B-79BC4C0CECFD",
            "ID_CreatedBy": 1,
            "ID_LastModifiedBy": 1,
            "DateCreated": "2020-08-11T12:07:07.283Z",
            "DateModified": null,
            "DataSource": null,
            "Format": null,
            "Width": "150",
            "Fixed": null,
            "VisibleIndex": 600,
            "IsAllowEdit": null,
            "ID_ControlType": null,
            "ID_ColumnAlignment": null,
            "IsVisible": true,
            "FixedPosition": null,
            "IsRequired": null,
            "ID_SummaryType": null,
            "IsAddModelClass": null,
            "GroupIndex": 0,
            "IsFilter": null,
            "ID_FilterControlType": null,
            "ID_PropertyModel": null,
            "PropertyModel": null,
            "SummaryType": null
        },
        {
            "ID_PropertyType": 2,
            "Precision": null,
            "$DataSource": null,
            "DisplayProperty": "LastModifiedBy",
            "Oid": "5CE990AD-9B06-452B-87A6-8B124D154501",
            "Code": null,
            "Name": "ID_LastModifiedBy",
            "IsActive": true,
            "Comment": null,
            "Caption": "Last Modified By",
            "ID_ModelProperty": "A9D74625-DF81-4977-8CA5-30C5E19CFF97",
            "ID_ListView": "EC5E4676-16EC-4D75-B61B-79BC4C0CECFD",
            "ID_CreatedBy": 1,
            "ID_LastModifiedBy": 1,
            "DateCreated": "2020-08-11T12:07:07.283Z",
            "DateModified": null,
            "DataSource": null,
            "Format": null,
            "Width": "150",
            "Fixed": null,
            "VisibleIndex": 900,
            "IsAllowEdit": null,
            "ID_ControlType": null,
            "ID_ColumnAlignment": null,
            "IsVisible": true,
            "FixedPosition": null,
            "IsRequired": null,
            "ID_SummaryType": null,
            "IsAddModelClass": null,
            "GroupIndex": 0,
            "IsFilter": null,
            "ID_FilterControlType": null,
            "ID_PropertyModel": null,
            "PropertyModel": null,
            "SummaryType": null
        },
        {
            "ID_PropertyType": 1,
            "Precision": null,
            "$DataSource": null,
            "DisplayProperty": null,
            "Oid": "6E37D2E2-CD46-426C-8E65-9B725EAD46CE",
            "Code": null,
            "Name": "Code",
            "IsActive": true,
            "Comment": null,
            "Caption": null,
            "ID_ModelProperty": "4CFCDE39-2A77-4FA5-92D5-A3B67A2BC87D",
            "ID_ListView": "EC5E4676-16EC-4D75-B61B-79BC4C0CECFD",
            "ID_CreatedBy": 1,
            "ID_LastModifiedBy": 1,
            "DateCreated": "2020-08-11T12:07:07.283Z",
            "DateModified": null,
            "DataSource": null,
            "Format": null,
            "Width": "120",
            "Fixed": null,
            "VisibleIndex": 200,
            "IsAllowEdit": null,
            "ID_ControlType": null,
            "ID_ColumnAlignment": null,
            "IsVisible": true,
            "FixedPosition": null,
            "IsRequired": null,
            "ID_SummaryType": null,
            "IsAddModelClass": null,
            "GroupIndex": 0,
            "IsFilter": null,
            "ID_FilterControlType": null,
            "ID_PropertyModel": null,
            "PropertyModel": null,
            "SummaryType": null
        },
        {
            "ID_PropertyType": 1,
            "Precision": null,
            "$DataSource": null,
            "DisplayProperty": null,
            "Oid": "A4120B45-77F6-4752-8F57-A28768655F73",
            "Code": null,
            "Name": "Comment",
            "IsActive": true,
            "Comment": null,
            "Caption": null,
            "ID_ModelProperty": "5276C9E4-C81C-4451-8EE2-FA57BE70CE49",
            "ID_ListView": "EC5E4676-16EC-4D75-B61B-79BC4C0CECFD",
            "ID_CreatedBy": 1,
            "ID_LastModifiedBy": 1,
            "DateCreated": "2020-08-11T12:07:07.283Z",
            "DateModified": null,
            "DataSource": null,
            "Format": null,
            "Width": "150",
            "Fixed": null,
            "VisibleIndex": 1000,
            "IsAllowEdit": null,
            "ID_ControlType": null,
            "ID_ColumnAlignment": null,
            "IsVisible": true,
            "FixedPosition": null,
            "IsRequired": null,
            "ID_SummaryType": null,
            "IsAddModelClass": null,
            "GroupIndex": 0,
            "IsFilter": null,
            "ID_FilterControlType": null,
            "ID_PropertyModel": null,
            "PropertyModel": null,
            "SummaryType": null
        },
        {
            "ID_PropertyType": 2,
            "Precision": null,
            "$DataSource": null,
            "DisplayProperty": null,
            "Oid": "4EED518E-9A6B-463D-911A-65908698BCE4",
            "Code": null,
            "Name": "ID_Supplier",
            "IsActive": true,
            "Comment": null,
            "Caption": null,
            "ID_ModelProperty": "E0B38D48-A3F4-4C19-8EDC-57E3714087E4",
            "ID_ListView": "EC5E4676-16EC-4D75-B61B-79BC4C0CECFD",
            "ID_CreatedBy": 1,
            "ID_LastModifiedBy": 1,
            "DateCreated": "2020-08-11T12:33:32.060Z",
            "DateModified": null,
            "DataSource": null,
            "Format": null,
            "Width": "150",
            "Fixed": null,
            "VisibleIndex": null,
            "IsAllowEdit": null,
            "ID_ControlType": null,
            "ID_ColumnAlignment": null,
            "IsVisible": false,
            "FixedPosition": null,
            "IsRequired": null,
            "ID_SummaryType": null,
            "IsAddModelClass": null,
            "GroupIndex": 0,
            "IsFilter": null,
            "ID_FilterControlType": null,
            "ID_PropertyModel": null,
            "PropertyModel": null,
            "SummaryType": null
        },
        {
            "ID_PropertyType": 3,
            "Precision": 2,
            "$DataSource": null,
            "DisplayProperty": null,
            "Oid": "BB42B87D-F95B-4F2D-8648-4FDCDBDCA672",
            "Code": null,
            "Name": "TotalQuantity",
            "IsActive": true,
            "Comment": null,
            "Caption": null,
            "ID_ModelProperty": "C19D0C94-3864-4A51-8B38-63195028C259",
            "ID_ListView": "EC5E4676-16EC-4D75-B61B-79BC4C0CECFD",
            "ID_CreatedBy": 1,
            "ID_LastModifiedBy": 1,
            "DateCreated": "2020-08-11T12:41:12.280Z",
            "DateModified": null,
            "DataSource": null,
            "Format": null,
            "Width": "150",
            "Fixed": null,
            "VisibleIndex": null,
            "IsAllowEdit": null,
            "ID_ControlType": null,
            "ID_ColumnAlignment": null,
            "IsVisible": false,
            "FixedPosition": null,
            "IsRequired": null,
            "ID_SummaryType": null,
            "IsAddModelClass": null,
            "GroupIndex": 0,
            "IsFilter": null,
            "ID_FilterControlType": null,
            "ID_PropertyModel": null,
            "PropertyModel": null,
            "SummaryType": null
        },
        {
            "ID_PropertyType": 3,
            "Precision": 2,
            "$DataSource": null,
            "DisplayProperty": null,
            "Oid": "49AB7651-F0EB-4D9D-98E2-C4F85507153A",
            "Code": null,
            "Name": "TotalGrossAmount",
            "IsActive": true,
            "Comment": null,
            "Caption": null,
            "ID_ModelProperty": "CD13CBC4-C8A0-4650-BA5A-BEE2AB303BC9",
            "ID_ListView": "EC5E4676-16EC-4D75-B61B-79BC4C0CECFD",
            "ID_CreatedBy": 1,
            "ID_LastModifiedBy": 1,
            "DateCreated": "2020-08-11T12:43:45.083Z",
            "DateModified": null,
            "DataSource": null,
            "Format": null,
            "Width": "150",
            "Fixed": null,
            "VisibleIndex": null,
            "IsAllowEdit": null,
            "ID_ControlType": null,
            "ID_ColumnAlignment": null,
            "IsVisible": false,
            "FixedPosition": null,
            "IsRequired": null,
            "ID_SummaryType": null,
            "IsAddModelClass": null,
            "GroupIndex": 0,
            "IsFilter": null,
            "ID_FilterControlType": null,
            "ID_PropertyModel": null,
            "PropertyModel": null,
            "SummaryType": null
        },
        {
            "ID_PropertyType": 3,
            "Precision": 2,
            "$DataSource": null,
            "DisplayProperty": null,
            "Oid": "A8235E65-043D-40C6-9579-AC84663EECDE",
            "Code": null,
            "Name": "TotalNetAmount",
            "IsActive": true,
            "Comment": null,
            "Caption": null,
            "ID_ModelProperty": "93A5D5CC-AB2B-419A-83BC-1CB6CF17434F",
            "ID_ListView": "EC5E4676-16EC-4D75-B61B-79BC4C0CECFD",
            "ID_CreatedBy": 1,
            "ID_LastModifiedBy": 1,
            "DateCreated": "2020-08-11T12:44:04.520Z",
            "DateModified": null,
            "DataSource": null,
            "Format": null,
            "Width": "150",
            "Fixed": null,
            "VisibleIndex": null,
            "IsAllowEdit": null,
            "ID_ControlType": null,
            "ID_ColumnAlignment": null,
            "IsVisible": false,
            "FixedPosition": null,
            "IsRequired": null,
            "ID_SummaryType": null,
            "IsAddModelClass": null,
            "GroupIndex": 0,
            "IsFilter": null,
            "ID_FilterControlType": null,
            "ID_PropertyModel": null,
            "PropertyModel": null,
            "SummaryType": null
        },
        {
            "ID_PropertyType": 3,
            "Precision": 2,
            "$DataSource": null,
            "DisplayProperty": null,
            "Oid": "390283F3-CC3F-47F7-99D8-0E089F9F294C",
            "Code": null,
            "Name": "TotalVatAmount",
            "IsActive": true,
            "Comment": null,
            "Caption": null,
            "ID_ModelProperty": "D1FA0D24-539E-469C-AE86-FEE6C3FE35EA",
            "ID_ListView": "EC5E4676-16EC-4D75-B61B-79BC4C0CECFD",
            "ID_CreatedBy": 1,
            "ID_LastModifiedBy": 1,
            "DateCreated": "2020-08-11T13:03:14.997Z",
            "DateModified": null,
            "DataSource": null,
            "Format": null,
            "Width": "150",
            "Fixed": null,
            "VisibleIndex": null,
            "IsAllowEdit": null,
            "ID_ControlType": null,
            "ID_ColumnAlignment": null,
            "IsVisible": false,
            "FixedPosition": null,
            "IsRequired": null,
            "ID_SummaryType": null,
            "IsAddModelClass": null,
            "GroupIndex": 0,
            "IsFilter": null,
            "ID_FilterControlType": null,
            "ID_PropertyModel": null,
            "PropertyModel": null,
            "SummaryType": null
        },
        {
            "ID_PropertyType": 6,
            "Precision": null,
            "$DataSource": null,
            "DisplayProperty": null,
            "Oid": "485BE289-911E-40B7-8F08-FF567CEC482F",
            "Code": null,
            "Name": "DocumentDate",
            "IsActive": true,
            "Comment": null,
            "Caption": null,
            "ID_ModelProperty": "27DF7C29-9865-4404-88FD-0AF963ABAE12",
            "ID_ListView": "EC5E4676-16EC-4D75-B61B-79BC4C0CECFD",
            "ID_CreatedBy": 1,
            "ID_LastModifiedBy": 1,
            "DateCreated": "2020-08-11T13:13:07.290Z",
            "DateModified": null,
            "DataSource": null,
            "Format": null,
            "Width": "150",
            "Fixed": null,
            "VisibleIndex": 1700,
            "IsAllowEdit": null,
            "ID_ControlType": null,
            "ID_ColumnAlignment": null,
            "IsVisible": false,
            "FixedPosition": null,
            "IsRequired": null,
            "ID_SummaryType": null,
            "IsAddModelClass": null,
            "GroupIndex": 0,
            "IsFilter": null,
            "ID_FilterControlType": null,
            "ID_PropertyModel": null,
            "PropertyModel": null,
            "SummaryType": null
        },
        {
            "ID_PropertyType": 2,
            "Precision": null,
            "$DataSource": null,
            "DisplayProperty": "FilingStatus",
            "Oid": "9672EDC5-11DA-4948-AB00-A675870F050D",
            "Code": null,
            "Name": "ID_FilingStatus",
            "IsActive": true,
            "Comment": null,
            "Caption": "Filing Status",
            "ID_ModelProperty": "16EE50B3-1FD5-4029-8C8B-62F9250F4DD9",
            "ID_ListView": "EC5E4676-16EC-4D75-B61B-79BC4C0CECFD",
            "ID_CreatedBy": 1,
            "ID_LastModifiedBy": 1,
            "DateCreated": "2020-08-11T13:15:33.090Z",
            "DateModified": null,
            "DataSource": null,
            "Format": null,
            "Width": "150",
            "Fixed": true,
            "VisibleIndex": 1500,
            "IsAllowEdit": null,
            "ID_ControlType": null,
            "ID_ColumnAlignment": null,
            "IsVisible": true,
            "FixedPosition": "right",
            "IsRequired": null,
            "ID_SummaryType": null,
            "IsAddModelClass": true,
            "GroupIndex": 0,
            "IsFilter": null,
            "ID_FilterControlType": null,
            "ID_PropertyModel": "8A651C66-5CB8-4FFA-89A5-E7DF2AD0983F",
            "PropertyModel": null,
            "SummaryType": null
        },
        {
            "ID_PropertyType": 2,
            "Precision": null,
            "$DataSource": null,
            "DisplayProperty": null,
            "Oid": "6F2963AB-7C0B-40F4-ADF9-0114DF4C5701",
            "Code": null,
            "Name": "ID_SubmittedBy",
            "IsActive": true,
            "Comment": null,
            "Caption": null,
            "ID_ModelProperty": "F4859CD6-857B-495F-BC3C-96379CBFF4F2",
            "ID_ListView": "EC5E4676-16EC-4D75-B61B-79BC4C0CECFD",
            "ID_CreatedBy": 1,
            "ID_LastModifiedBy": 1,
            "DateCreated": "2020-08-12T10:02:11.870Z",
            "DateModified": null,
            "DataSource": null,
            "Format": null,
            "Width": "150",
            "Fixed": null,
            "VisibleIndex": 900,
            "IsAllowEdit": null,
            "ID_ControlType": null,
            "ID_ColumnAlignment": null,
            "IsVisible": false,
            "FixedPosition": null,
            "IsRequired": null,
            "ID_SummaryType": null,
            "IsAddModelClass": null,
            "GroupIndex": 0,
            "IsFilter": null,
            "ID_FilterControlType": null,
            "ID_PropertyModel": null,
            "PropertyModel": null,
            "SummaryType": null
        },
        {
            "ID_PropertyType": 5,
            "Precision": null,
            "$DataSource": null,
            "DisplayProperty": null,
            "Oid": "A6979AE4-8A17-401D-B84C-5ADC8A599756",
            "Code": null,
            "Name": "DateSubmitted",
            "IsActive": true,
            "Comment": null,
            "Caption": null,
            "ID_ModelProperty": "CA56DC2F-54A7-4431-B4C9-D8C7F038089B",
            "ID_ListView": "EC5E4676-16EC-4D75-B61B-79BC4C0CECFD",
            "ID_CreatedBy": 1,
            "ID_LastModifiedBy": 1,
            "DateCreated": "2020-08-12T10:02:37.580Z",
            "DateModified": null,
            "DataSource": null,
            "Format": null,
            "Width": "150",
            "Fixed": null,
            "VisibleIndex": 700,
            "IsAllowEdit": null,
            "ID_ControlType": null,
            "ID_ColumnAlignment": null,
            "IsVisible": false,
            "FixedPosition": null,
            "IsRequired": null,
            "ID_SummaryType": null,
            "IsAddModelClass": null,
            "GroupIndex": 0,
            "IsFilter": null,
            "ID_FilterControlType": null,
            "ID_PropertyModel": null,
            "PropertyModel": null,
            "SummaryType": null
        },
        {
            "ID_PropertyType": 2,
            "Precision": null,
            "$DataSource": null,
            "DisplayProperty": null,
            "Oid": "787EB696-1B98-4A2C-A51B-416B82ACD2BB",
            "Code": null,
            "Name": "ID_TaxScheme",
            "IsActive": true,
            "Comment": null,
            "Caption": null,
            "ID_ModelProperty": "27644D76-DB1C-4E75-A05B-CDD379BCA959",
            "ID_ListView": "EC5E4676-16EC-4D75-B61B-79BC4C0CECFD",
            "ID_CreatedBy": 1,
            "ID_LastModifiedBy": 1,
            "DateCreated": "2020-08-12T12:09:42.367Z",
            "DateModified": null,
            "DataSource": null,
            "Format": null,
            "Width": "150",
            "Fixed": null,
            "VisibleIndex": 1600,
            "IsAllowEdit": null,
            "ID_ControlType": null,
            "ID_ColumnAlignment": null,
            "IsVisible": false,
            "FixedPosition": null,
            "IsRequired": null,
            "ID_SummaryType": null,
            "IsAddModelClass": null,
            "GroupIndex": 0,
            "IsFilter": null,
            "ID_FilterControlType": null,
            "ID_PropertyModel": null,
            "PropertyModel": null,
            "SummaryType": null
        },
        {
            "ID_PropertyType": 5,
            "Precision": null,
            "$DataSource": null,
            "DisplayProperty": null,
            "Oid": "102178EA-440D-41FE-9B45-138971135CA0",
            "Code": null,
            "Name": "DateApproved",
            "IsActive": true,
            "Comment": null,
            "Caption": "Date Approved",
            "ID_ModelProperty": "0B36B8E4-1D87-4C0B-8B01-FE89A0F7F678",
            "ID_ListView": "EC5E4676-16EC-4D75-B61B-79BC4C0CECFD",
            "ID_CreatedBy": 1,
            "ID_LastModifiedBy": 1,
            "DateCreated": "2020-08-12T12:59:22.750Z",
            "DateModified": null,
            "DataSource": null,
            "Format": null,
            "Width": "150",
            "Fixed": null,
            "VisibleIndex": 1100,
            "IsAllowEdit": null,
            "ID_ControlType": null,
            "ID_ColumnAlignment": null,
            "IsVisible": true,
            "FixedPosition": null,
            "IsRequired": null,
            "ID_SummaryType": null,
            "IsAddModelClass": null,
            "GroupIndex": 0,
            "IsFilter": null,
            "ID_FilterControlType": null,
            "ID_PropertyModel": null,
            "PropertyModel": null,
            "SummaryType": null
        },
        {
            "ID_PropertyType": 2,
            "Precision": null,
            "$DataSource": null,
            "DisplayProperty": "ApprovedBy",
            "Oid": "71B93D15-4859-4AAE-B7E7-44AE468C40E7",
            "Code": null,
            "Name": "ID_ApprovedBy",
            "IsActive": true,
            "Comment": null,
            "Caption": "Approved By",
            "ID_ModelProperty": "70692746-635B-4D99-8925-4ADF247E2E36",
            "ID_ListView": "EC5E4676-16EC-4D75-B61B-79BC4C0CECFD",
            "ID_CreatedBy": 1,
            "ID_LastModifiedBy": 1,
            "DateCreated": "2020-08-12T13:00:09.807Z",
            "DateModified": null,
            "DataSource": null,
            "Format": null,
            "Width": "150",
            "Fixed": null,
            "VisibleIndex": 1200,
            "IsAllowEdit": null,
            "ID_ControlType": null,
            "ID_ColumnAlignment": null,
            "IsVisible": true,
            "FixedPosition": null,
            "IsRequired": null,
            "ID_SummaryType": null,
            "IsAddModelClass": null,
            "GroupIndex": 0,
            "IsFilter": null,
            "ID_FilterControlType": null,
            "ID_PropertyModel": null,
            "PropertyModel": null,
            "SummaryType": null
        },
        {
            "ID_PropertyType": 5,
            "Precision": null,
            "$DataSource": null,
            "DisplayProperty": null,
            "Oid": "27B5C42C-97C2-40BE-A139-9544E44D2D35",
            "Code": null,
            "Name": "DateCancelled",
            "IsActive": true,
            "Comment": null,
            "Caption": "Date Cancelled",
            "ID_ModelProperty": "5B1D7610-2F4D-4420-8199-77F28148BA67",
            "ID_ListView": "EC5E4676-16EC-4D75-B61B-79BC4C0CECFD",
            "ID_CreatedBy": 1,
            "ID_LastModifiedBy": 1,
            "DateCreated": "2020-08-12T13:12:50.067Z",
            "DateModified": null,
            "DataSource": null,
            "Format": null,
            "Width": "150",
            "Fixed": null,
            "VisibleIndex": 1300,
            "IsAllowEdit": null,
            "ID_ControlType": null,
            "ID_ColumnAlignment": null,
            "IsVisible": true,
            "FixedPosition": null,
            "IsRequired": null,
            "ID_SummaryType": null,
            "IsAddModelClass": null,
            "GroupIndex": 0,
            "IsFilter": null,
            "ID_FilterControlType": null,
            "ID_PropertyModel": null,
            "PropertyModel": null,
            "SummaryType": null
        },
        {
            "ID_PropertyType": 2,
            "Precision": null,
            "$DataSource": null,
            "DisplayProperty": "CancelledBy",
            "Oid": "1E941D2B-1502-4191-8C48-CC8F44EBA420",
            "Code": null,
            "Name": "ID_CancelledBy",
            "IsActive": true,
            "Comment": null,
            "Caption": "Cancelled By",
            "ID_ModelProperty": "35EDA638-FC1C-4FBE-A7F2-6A6F23597984",
            "ID_ListView": "EC5E4676-16EC-4D75-B61B-79BC4C0CECFD",
            "ID_CreatedBy": 1,
            "ID_LastModifiedBy": 1,
            "DateCreated": "2020-08-12T13:13:19.450Z",
            "DateModified": null,
            "DataSource": null,
            "Format": null,
            "Width": "150",
            "Fixed": null,
            "VisibleIndex": 1400,
            "IsAllowEdit": null,
            "ID_ControlType": null,
            "ID_ColumnAlignment": null,
            "IsVisible": true,
            "FixedPosition": null,
            "IsRequired": null,
            "ID_SummaryType": null,
            "IsAddModelClass": null,
            "GroupIndex": 0,
            "IsFilter": null,
            "ID_FilterControlType": null,
            "ID_PropertyModel": null,
            "PropertyModel": null,
            "SummaryType": null
        },
        {
            "ID_PropertyType": 3,
            "Precision": 2,
            "$DataSource": null,
            "DisplayProperty": null,
            "Oid": "ADACE2AB-ACC8-4E49-85D6-B1A2AAAAC54A",
            "Code": null,
            "Name": "GrossAmount",
            "IsActive": true,
            "Comment": null,
            "Caption": null,
            "ID_ModelProperty": "AC870753-50AF-4DF7-A89D-17543AD53487",
            "ID_ListView": "EC5E4676-16EC-4D75-B61B-79BC4C0CECFD",
            "ID_CreatedBy": 1,
            "ID_LastModifiedBy": 1,
            "DateCreated": "2020-09-28T02:49:26.273Z",
            "DateModified": null,
            "DataSource": null,
            "Format": null,
            "Width": "114",
            "Fixed": null,
            "VisibleIndex": 300,
            "IsAllowEdit": null,
            "ID_ControlType": null,
            "ID_ColumnAlignment": null,
            "IsVisible": true,
            "FixedPosition": null,
            "IsRequired": null,
            "ID_SummaryType": null,
            "IsAddModelClass": null,
            "GroupIndex": 0,
            "IsFilter": null,
            "ID_FilterControlType": null,
            "ID_PropertyModel": null,
            "PropertyModel": null,
            "SummaryType": null
        },
        {
            "ID_PropertyType": 3,
            "Precision": 2,
            "$DataSource": null,
            "DisplayProperty": null,
            "Oid": "0D984DC1-1846-4EDB-9B6C-FE77EBB0BFB0",
            "Code": null,
            "Name": "VatAmount",
            "IsActive": true,
            "Comment": null,
            "Caption": null,
            "ID_ModelProperty": "CAD3BA37-8EA0-4C27-8FCC-19C07B395A77",
            "ID_ListView": "EC5E4676-16EC-4D75-B61B-79BC4C0CECFD",
            "ID_CreatedBy": 1,
            "ID_LastModifiedBy": 1,
            "DateCreated": "2020-09-28T02:49:27.680Z",
            "DateModified": null,
            "DataSource": null,
            "Format": null,
            "Width": "150",
            "Fixed": null,
            "VisibleIndex": 400,
            "IsAllowEdit": null,
            "ID_ControlType": null,
            "ID_ColumnAlignment": null,
            "IsVisible": true,
            "FixedPosition": null,
            "IsRequired": null,
            "ID_SummaryType": null,
            "IsAddModelClass": null,
            "GroupIndex": 0,
            "IsFilter": null,
            "ID_FilterControlType": null,
            "ID_PropertyModel": null,
            "PropertyModel": null,
            "SummaryType": null
        },
        {
            "ID_PropertyType": 3,
            "Precision": 2,
            "$DataSource": null,
            "DisplayProperty": null,
            "Oid": "EED12D35-BC6C-4406-B873-88787E8CEC87",
            "Code": null,
            "Name": "NetAmount",
            "IsActive": true,
            "Comment": null,
            "Caption": null,
            "ID_ModelProperty": "69B72738-E99B-493E-BB66-510622D8A689",
            "ID_ListView": "EC5E4676-16EC-4D75-B61B-79BC4C0CECFD",
            "ID_CreatedBy": 1,
            "ID_LastModifiedBy": 1,
            "DateCreated": "2020-09-28T02:49:28.087Z",
            "DateModified": null,
            "DataSource": null,
            "Format": null,
            "Width": "150",
            "Fixed": null,
            "VisibleIndex": 500,
            "IsAllowEdit": null,
            "ID_ControlType": null,
            "ID_ColumnAlignment": null,
            "IsVisible": true,
            "FixedPosition": null,
            "IsRequired": null,
            "ID_SummaryType": null,
            "IsAddModelClass": null,
            "GroupIndex": 0,
            "IsFilter": null,
            "ID_FilterControlType": null,
            "ID_PropertyModel": null,
            "PropertyModel": null,
            "SummaryType": null
        },
        {
            "ID_PropertyType": 5,
            "Precision": null,
            "$DataSource": null,
            "DisplayProperty": null,
            "Oid": "F014B1B5-C066-4A6D-905B-D871045B3F02",
            "Code": null,
            "Name": "Date",
            "IsActive": true,
            "Comment": null,
            "Caption": null,
            "ID_ModelProperty": "FE2CDD87-54C6-4DDC-82FF-911D7ABA4707",
            "ID_ListView": "EC5E4676-16EC-4D75-B61B-79BC4C0CECFD",
            "ID_CreatedBy": 1,
            "ID_LastModifiedBy": 1,
            "DateCreated": "2020-09-28T02:49:28.463Z",
            "DateModified": null,
            "DataSource": null,
            "Format": null,
            "Width": "150",
            "Fixed": null,
            "VisibleIndex": 100,
            "IsAllowEdit": null,
            "ID_ControlType": null,
            "ID_ColumnAlignment": null,
            "IsVisible": true,
            "FixedPosition": null,
            "IsRequired": null,
            "ID_SummaryType": null,
            "IsAddModelClass": null,
            "GroupIndex": 0,
            "IsFilter": null,
            "ID_FilterControlType": null,
            "ID_PropertyModel": null,
            "PropertyModel": null,
            "SummaryType": null
        },
        {
            "ID_PropertyType": 2,
            "Precision": null,
            "$DataSource": null,
            "DisplayProperty": null,
            "Oid": "7172390B-B0AE-4FDF-99C9-DC124D50686B",
            "Code": null,
            "Name": "ID_CanceledBy",
            "IsActive": true,
            "Comment": null,
            "Caption": null,
            "ID_ModelProperty": "E9BD40BC-4890-446E-998A-1C1558786E89",
            "ID_ListView": "EC5E4676-16EC-4D75-B61B-79BC4C0CECFD",
            "ID_CreatedBy": 1,
            "ID_LastModifiedBy": 1,
            "DateCreated": "2020-09-28T02:49:29.067Z",
            "DateModified": null,
            "DataSource": null,
            "Format": null,
            "Width": "150",
            "Fixed": null,
            "VisibleIndex": 1100,
            "IsAllowEdit": null,
            "ID_ControlType": null,
            "ID_ColumnAlignment": null,
            "IsVisible": false,
            "FixedPosition": null,
            "IsRequired": null,
            "ID_SummaryType": null,
            "IsAddModelClass": null,
            "GroupIndex": 0,
            "IsFilter": null,
            "ID_FilterControlType": null,
            "ID_PropertyModel": null,
            "PropertyModel": null,
            "SummaryType": null
        },
        {
            "ID_PropertyType": 5,
            "Precision": null,
            "$DataSource": null,
            "DisplayProperty": null,
            "Oid": "646CEFF8-683C-4762-82FD-AFEE982E61FC",
            "Code": null,
            "Name": "DateCanceled",
            "IsActive": true,
            "Comment": null,
            "Caption": null,
            "ID_ModelProperty": "9502A334-8C6D-4820-A19E-5EF45D778ECD",
            "ID_ListView": "EC5E4676-16EC-4D75-B61B-79BC4C0CECFD",
            "ID_CreatedBy": 1,
            "ID_LastModifiedBy": 1,
            "DateCreated": "2020-09-28T02:49:29.910Z",
            "DateModified": null,
            "DataSource": null,
            "Format": null,
            "Width": "150",
            "Fixed": null,
            "VisibleIndex": 1100,
            "IsAllowEdit": null,
            "ID_ControlType": null,
            "ID_ColumnAlignment": null,
            "IsVisible": false,
            "FixedPosition": null,
            "IsRequired": null,
            "ID_SummaryType": null,
            "IsAddModelClass": null,
            "GroupIndex": 0,
            "IsFilter": null,
            "ID_FilterControlType": null,
            "ID_PropertyModel": null,
            "PropertyModel": null,
            "SummaryType": null
        },
        {
            "ID_PropertyType": 2,
            "Precision": null,
            "$DataSource": null,
            "DisplayProperty": "ServingStatus_Name_FilingStatus",
            "Oid": "E75F7777-EA5D-486B-BCE7-995969C5E388",
            "Code": null,
            "Name": "ServingStatus_ID_FilingStatus",
            "IsActive": true,
            "Comment": null,
            "Caption": "Serving Status",
            "ID_ModelProperty": "462963FA-F3E2-442F-8BE5-CE7873019832",
            "ID_ListView": "EC5E4676-16EC-4D75-B61B-79BC4C0CECFD",
            "ID_CreatedBy": 1,
            "ID_LastModifiedBy": 1,
            "DateCreated": "2020-10-06T13:18:35.700Z",
            "DateModified": null,
            "DataSource": null,
            "Format": null,
            "Width": "150",
            "Fixed": true,
            "VisibleIndex": 1600,
            "IsAllowEdit": null,
            "ID_ControlType": null,
            "ID_ColumnAlignment": null,
            "IsVisible": true,
            "FixedPosition": "right",
            "IsRequired": null,
            "ID_SummaryType": null,
            "IsAddModelClass": null,
            "GroupIndex": 0,
            "IsFilter": null,
            "ID_FilterControlType": null,
            "ID_PropertyModel": null,
            "PropertyModel": null,
            "SummaryType": null
        },
        {
            "ID_PropertyType": 3,
            "Precision": 2,
            "$DataSource": null,
            "DisplayProperty": null,
            "Oid": "31F7F853-4D02-4900-B6B9-39D0E2C99FAF",
            "Code": null,
            "Name": "DiscountRate",
            "IsActive": true,
            "Comment": null,
            "Caption": null,
            "ID_ModelProperty": "9423032B-C7A4-4A6A-A851-4649E5127B61",
            "ID_ListView": "EC5E4676-16EC-4D75-B61B-79BC4C0CECFD",
            "ID_CreatedBy": 1,
            "ID_LastModifiedBy": null,
            "DateCreated": "2021-03-03T04:41:24.020Z",
            "DateModified": null,
            "DataSource": null,
            "Format": null,
            "Width": null,
            "Fixed": null,
            "VisibleIndex": 1000,
            "IsAllowEdit": null,
            "ID_ControlType": null,
            "ID_ColumnAlignment": null,
            "IsVisible": true,
            "FixedPosition": null,
            "IsRequired": null,
            "ID_SummaryType": null,
            "IsAddModelClass": null,
            "GroupIndex": null,
            "IsFilter": null,
            "ID_FilterControlType": null,
            "ID_PropertyModel": null,
            "PropertyModel": null,
            "SummaryType": null
        },
        {
            "ID_PropertyType": 3,
            "Precision": 2,
            "$DataSource": null,
            "DisplayProperty": null,
            "Oid": "5EC4CA91-D44C-475A-8EF4-20C2BFEEBB36",
            "Code": null,
            "Name": "DiscountAmount",
            "IsActive": true,
            "Comment": null,
            "Caption": null,
            "ID_ModelProperty": "F71E37E0-CACF-495E-B5A4-E91938E390C5",
            "ID_ListView": "EC5E4676-16EC-4D75-B61B-79BC4C0CECFD",
            "ID_CreatedBy": 1,
            "ID_LastModifiedBy": null,
            "DateCreated": "2021-03-03T04:41:24.373Z",
            "DateModified": null,
            "DataSource": null,
            "Format": null,
            "Width": null,
            "Fixed": null,
            "VisibleIndex": 1000,
            "IsAllowEdit": null,
            "ID_ControlType": null,
            "ID_ColumnAlignment": null,
            "IsVisible": true,
            "FixedPosition": null,
            "IsRequired": null,
            "ID_SummaryType": null,
            "IsAddModelClass": null,
            "GroupIndex": null,
            "IsFilter": null,
            "ID_FilterControlType": null,
            "ID_PropertyModel": null,
            "PropertyModel": null,
            "SummaryType": null
        },
        {
            "ID_PropertyType": 4,
            "Precision": null,
            "$DataSource": null,
            "DisplayProperty": null,
            "Oid": "A92579BB-D1EF-4554-8A3F-6348C1ACC17E",
            "Code": null,
            "Name": "IsComputeDiscountRate",
            "IsActive": true,
            "Comment": null,
            "Caption": null,
            "ID_ModelProperty": "9B9F255C-5D9F-4D9F-AC36-90AC8527E4C4",
            "ID_ListView": "EC5E4676-16EC-4D75-B61B-79BC4C0CECFD",
            "ID_CreatedBy": 1,
            "ID_LastModifiedBy": null,
            "DateCreated": "2021-03-03T04:41:24.737Z",
            "DateModified": null,
            "DataSource": null,
            "Format": null,
            "Width": null,
            "Fixed": null,
            "VisibleIndex": 1000,
            "IsAllowEdit": null,
            "ID_ControlType": null,
            "ID_ColumnAlignment": null,
            "IsVisible": true,
            "FixedPosition": null,
            "IsRequired": null,
            "ID_SummaryType": null,
            "IsAddModelClass": null,
            "GroupIndex": null,
            "IsFilter": null,
            "ID_FilterControlType": null,
            "ID_PropertyModel": null,
            "PropertyModel": null,
            "SummaryType": null
        },
        {
            "ID_PropertyType": 3,
            "Precision": 2,
            "$DataSource": null,
            "DisplayProperty": null,
            "Oid": "D245B137-02F9-42AB-9944-8F49A923B73B",
            "Code": null,
            "Name": "SubTotal",
            "IsActive": true,
            "Comment": null,
            "Caption": null,
            "ID_ModelProperty": "0FC93975-C6C5-4B6F-A2EB-3DE4720BBD8F",
            "ID_ListView": "EC5E4676-16EC-4D75-B61B-79BC4C0CECFD",
            "ID_CreatedBy": 1,
            "ID_LastModifiedBy": null,
            "DateCreated": "2021-03-03T04:41:25.053Z",
            "DateModified": null,
            "DataSource": null,
            "Format": null,
            "Width": null,
            "Fixed": null,
            "VisibleIndex": 1000,
            "IsAllowEdit": null,
            "ID_ControlType": null,
            "ID_ColumnAlignment": null,
            "IsVisible": true,
            "FixedPosition": null,
            "IsRequired": null,
            "ID_SummaryType": null,
            "IsAddModelClass": null,
            "GroupIndex": null,
            "IsFilter": null,
            "ID_FilterControlType": null,
            "ID_PropertyModel": null,
            "PropertyModel": null,
            "SummaryType": null
        },
        {
            "ID_PropertyType": 3,
            "Precision": 2,
            "$DataSource": null,
            "DisplayProperty": null,
            "Oid": "0928123D-A4E7-42F1-8547-9DD72D94C421",
            "Code": null,
            "Name": "TotalAmount",
            "IsActive": true,
            "Comment": null,
            "Caption": null,
            "ID_ModelProperty": "9BD17D97-9164-49D5-A914-95869B6FE5F6",
            "ID_ListView": "EC5E4676-16EC-4D75-B61B-79BC4C0CECFD",
            "ID_CreatedBy": 1,
            "ID_LastModifiedBy": null,
            "DateCreated": "2021-03-03T04:41:25.370Z",
            "DateModified": null,
            "DataSource": null,
            "Format": null,
            "Width": null,
            "Fixed": null,
            "VisibleIndex": 1000,
            "IsAllowEdit": null,
            "ID_ControlType": null,
            "ID_ColumnAlignment": null,
            "IsVisible": true,
            "FixedPosition": null,
            "IsRequired": null,
            "ID_SummaryType": null,
            "IsAddModelClass": null,
            "GroupIndex": null,
            "IsFilter": null,
            "ID_FilterControlType": null,
            "ID_PropertyModel": null,
            "PropertyModel": null,
            "SummaryType": null
        }
    ]
}