{
    "Oid": "F275FB68-94E1-4697-8C5E-1B83935916F4",
    "Name": "ViewType_ListView",
    "ID_Model": "99C3110E-BAC8-4334-9876-FFFDE6FE97E2",
    "DataSource": "SELECT * FROM dbo.vViewType",
    "Comment": null,
    "ID_DetailView": "04458838-162E-4AF4-9373-41E0EAF60D03",
    "Model": "ViewType",
    "PrimaryKey": "ID",
    "Caption": "ViewType",
    "Details": [
        {
            "ID_PropertyType": 2,
            "Precision": null,
            "$DataSource": null,
            "DisplayProperty": "CreatedBy",
            "Oid": "B65849E1-7CF0-4E97-848D-03AE8DB671B6",
            "Code": null,
            "Name": "ID_CreatedBy",
            "IsActive": true,
            "Comment": null,
            "Caption": "Created By",
            "ID_ModelProperty": "3298DC98-CD3E-4CBA-9350-CB2DF5D0D3A9",
            "ID_ListView": "F275FB68-94E1-4697-8C5E-1B83935916F4",
            "ID_CreatedBy": 1,
            "ID_LastModifiedBy": null,
            "DateCreated": "2021-01-05T11:49:57.470Z",
            "DateModified": null,
            "DataSource": null,
            "Format": null,
            "Width": null,
            "Fixed": null,
            "VisibleIndex": 800,
            "IsAllowEdit": null,
            "ID_ControlType": null,
            "ID_ColumnAlignment": null,
            "IsVisible": true,
            "FixedPosition": null,
            "IsRequired": null,
            "ID_SummaryType": null,
            "IsAddModelClass": null,
            "GroupIndex": null,
            "IsFilter": null,
            "ID_FilterControlType": null,
            "ID_PropertyModel": null,
            "PropertyModel": null,
            "SummaryType": null
        },
        {
            "ID_PropertyType": 1,
            "Precision": null,
            "$DataSource": null,
            "DisplayProperty": null,
            "Oid": "B6D60795-AA59-4EE6-A0A4-2A2EC13306AD",
            "Code": null,
            "Name": "Comment",
            "IsActive": true,
            "Comment": null,
            "Caption": null,
            "ID_ModelProperty": "3360DDE0-6028-4021-9A14-D1D7089D0181",
            "ID_ListView": "F275FB68-94E1-4697-8C5E-1B83935916F4",
            "ID_CreatedBy": 1,
            "ID_LastModifiedBy": null,
            "DateCreated": "2021-01-05T11:49:57.470Z",
            "DateModified": null,
            "DataSource": null,
            "Format": null,
            "Width": null,
            "Fixed": null,
            "VisibleIndex": 900,
            "IsAllowEdit": null,
            "ID_ControlType": null,
            "ID_ColumnAlignment": null,
            "IsVisible": true,
            "FixedPosition": null,
            "IsRequired": null,
            "ID_SummaryType": null,
            "IsAddModelClass": null,
            "GroupIndex": null,
            "IsFilter": null,
            "ID_FilterControlType": null,
            "ID_PropertyModel": null,
            "PropertyModel": null,
            "SummaryType": null
        },
        {
            "ID_PropertyType": 4,
            "Precision": null,
            "$DataSource": null,
            "DisplayProperty": null,
            "Oid": "4B4CE306-F0B8-4E1E-8C6C-30E694F84121",
            "Code": null,
            "Name": "IsActive",
            "IsActive": true,
            "Comment": null,
            "Caption": "Active",
            "ID_ModelProperty": "C13FF199-5452-40A3-85ED-A0DD1ABAFC11",
            "ID_ListView": "F275FB68-94E1-4697-8C5E-1B83935916F4",
            "ID_CreatedBy": 1,
            "ID_LastModifiedBy": null,
            "DateCreated": "2021-01-05T11:49:57.470Z",
            "DateModified": null,
            "DataSource": null,
            "Format": null,
            "Width": null,
            "Fixed": null,
            "VisibleIndex": 500,
            "IsAllowEdit": null,
            "ID_ControlType": null,
            "ID_ColumnAlignment": null,
            "IsVisible": true,
            "FixedPosition": null,
            "IsRequired": null,
            "ID_SummaryType": null,
            "IsAddModelClass": null,
            "GroupIndex": null,
            "IsFilter": null,
            "ID_FilterControlType": null,
            "ID_PropertyModel": null,
            "PropertyModel": null,
            "SummaryType": null
        },
        {
            "ID_PropertyType": 2,
            "Precision": null,
            "$DataSource": null,
            "DisplayProperty": null,
            "Oid": "7FCB25CA-0092-4591-A164-4E139C8D5A9E",
            "Code": null,
            "Name": "ID",
            "IsActive": true,
            "Comment": null,
            "Caption": null,
            "ID_ModelProperty": "E2A28BD2-DFB4-417C-9308-9075DE95F8FC",
            "ID_ListView": "F275FB68-94E1-4697-8C5E-1B83935916F4",
            "ID_CreatedBy": 1,
            "ID_LastModifiedBy": null,
            "DateCreated": "2021-01-05T11:49:57.470Z",
            "DateModified": null,
            "DataSource": null,
            "Format": null,
            "Width": null,
            "Fixed": null,
            "VisibleIndex": 400,
            "IsAllowEdit": null,
            "ID_ControlType": null,
            "ID_ColumnAlignment": null,
            "IsVisible": true,
            "FixedPosition": null,
            "IsRequired": null,
            "ID_SummaryType": null,
            "IsAddModelClass": null,
            "GroupIndex": null,
            "IsFilter": null,
            "ID_FilterControlType": null,
            "ID_PropertyModel": null,
            "PropertyModel": null,
            "SummaryType": null
        },
        {
            "ID_PropertyType": 1,
            "Precision": null,
            "$DataSource": null,
            "DisplayProperty": null,
            "Oid": "8F67BB23-7D3D-4428-AF07-8ED762A4068F",
            "Code": null,
            "Name": "Code",
            "IsActive": true,
            "Comment": null,
            "Caption": null,
            "ID_ModelProperty": "86E9475F-3338-45B9-A9E1-2D23E51E9DD2",
            "ID_ListView": "F275FB68-94E1-4697-8C5E-1B83935916F4",
            "ID_CreatedBy": 1,
            "ID_LastModifiedBy": null,
            "DateCreated": "2021-01-05T11:49:57.470Z",
            "DateModified": null,
            "DataSource": null,
            "Format": null,
            "Width": null,
            "Fixed": null,
            "VisibleIndex": 100,
            "IsAllowEdit": null,
            "ID_ControlType": null,
            "ID_ColumnAlignment": null,
            "IsVisible": true,
            "FixedPosition": null,
            "IsRequired": null,
            "ID_SummaryType": null,
            "IsAddModelClass": null,
            "GroupIndex": null,
            "IsFilter": null,
            "ID_FilterControlType": null,
            "ID_PropertyModel": null,
            "PropertyModel": null,
            "SummaryType": null
        },
        {
            "ID_PropertyType": 2,
            "Precision": null,
            "$DataSource": null,
            "DisplayProperty": null,
            "Oid": "B322392C-4C22-425A-9AF0-97BC08E8AF9D",
            "Code": null,
            "Name": "ID_Company",
            "IsActive": true,
            "Comment": null,
            "Caption": null,
            "ID_ModelProperty": "9248610D-FF56-41A5-ADBA-84CDB49506F4",
            "ID_ListView": "F275FB68-94E1-4697-8C5E-1B83935916F4",
            "ID_CreatedBy": 1,
            "ID_LastModifiedBy": null,
            "DateCreated": "2021-01-05T11:49:57.470Z",
            "DateModified": null,
            "DataSource": null,
            "Format": null,
            "Width": null,
            "Fixed": null,
            "VisibleIndex": 300,
            "IsAllowEdit": null,
            "ID_ControlType": null,
            "ID_ColumnAlignment": null,
            "IsVisible": true,
            "FixedPosition": null,
            "IsRequired": null,
            "ID_SummaryType": null,
            "IsAddModelClass": null,
            "GroupIndex": null,
            "IsFilter": null,
            "ID_FilterControlType": null,
            "ID_PropertyModel": null,
            "PropertyModel": null,
            "SummaryType": null
        },
        {
            "ID_PropertyType": 2,
            "Precision": null,
            "$DataSource": null,
            "DisplayProperty": "LastModifiedBy",
            "Oid": "5A6DFACE-99D6-42AE-BF14-AA4CF7BE0804",
            "Code": null,
            "Name": "ID_LastModifiedBy",
            "IsActive": true,
            "Comment": null,
            "Caption": "Last Modified By",
            "ID_ModelProperty": "2B0097F5-51D6-41B0-AC90-8279E5040FC6",
            "ID_ListView": "F275FB68-94E1-4697-8C5E-1B83935916F4",
            "ID_CreatedBy": 1,
            "ID_LastModifiedBy": null,
            "DateCreated": "2021-01-05T11:49:57.470Z",
            "DateModified": null,
            "DataSource": null,
            "Format": null,
            "Width": null,
            "Fixed": null,
            "VisibleIndex": 200,
            "IsAllowEdit": null,
            "ID_ControlType": null,
            "ID_ColumnAlignment": null,
            "IsVisible": true,
            "FixedPosition": null,
            "IsRequired": null,
            "ID_SummaryType": null,
            "IsAddModelClass": null,
            "GroupIndex": null,
            "IsFilter": null,
            "ID_FilterControlType": null,
            "ID_PropertyModel": null,
            "PropertyModel": null,
            "SummaryType": null
        },
        {
            "ID_PropertyType": 5,
            "Precision": null,
            "$DataSource": null,
            "DisplayProperty": null,
            "Oid": "F0458D1A-5B8D-46F2-ADD7-B2E17AE80133",
            "Code": null,
            "Name": "DateCreated",
            "IsActive": true,
            "Comment": null,
            "Caption": "Date Created",
            "ID_ModelProperty": "22F3D7C2-3B12-480E-A583-A86738281088",
            "ID_ListView": "F275FB68-94E1-4697-8C5E-1B83935916F4",
            "ID_CreatedBy": 1,
            "ID_LastModifiedBy": null,
            "DateCreated": "2021-01-05T11:49:57.470Z",
            "DateModified": null,
            "DataSource": null,
            "Format": null,
            "Width": null,
            "Fixed": null,
            "VisibleIndex": 600,
            "IsAllowEdit": null,
            "ID_ControlType": null,
            "ID_ColumnAlignment": null,
            "IsVisible": true,
            "FixedPosition": null,
            "IsRequired": null,
            "ID_SummaryType": null,
            "IsAddModelClass": null,
            "GroupIndex": null,
            "IsFilter": null,
            "ID_FilterControlType": null,
            "ID_PropertyModel": null,
            "PropertyModel": null,
            "SummaryType": null
        },
        {
            "ID_PropertyType": 1,
            "Precision": null,
            "$DataSource": null,
            "DisplayProperty": null,
            "Oid": "55ABCB70-0E07-4F7A-9413-E015DCC8FB38",
            "Code": null,
            "Name": "Name",
            "IsActive": true,
            "Comment": null,
            "Caption": null,
            "ID_ModelProperty": "630D8B72-14D8-4412-A7A8-AA5B71F88667",
            "ID_ListView": "F275FB68-94E1-4697-8C5E-1B83935916F4",
            "ID_CreatedBy": 1,
            "ID_LastModifiedBy": null,
            "DateCreated": "2021-01-05T11:49:57.470Z",
            "DateModified": null,
            "DataSource": null,
            "Format": null,
            "Width": null,
            "Fixed": null,
            "VisibleIndex": 700,
            "IsAllowEdit": null,
            "ID_ControlType": null,
            "ID_ColumnAlignment": null,
            "IsVisible": true,
            "FixedPosition": null,
            "IsRequired": null,
            "ID_SummaryType": null,
            "IsAddModelClass": null,
            "GroupIndex": null,
            "IsFilter": null,
            "ID_FilterControlType": null,
            "ID_PropertyModel": null,
            "PropertyModel": null,
            "SummaryType": null
        },
        {
            "ID_PropertyType": 5,
            "Precision": null,
            "$DataSource": null,
            "DisplayProperty": null,
            "Oid": "AC0A627E-0DAD-4D46-B759-F9DEE9DA659B",
            "Code": null,
            "Name": "DateModified",
            "IsActive": true,
            "Comment": null,
            "Caption": "Date Modified",
            "ID_ModelProperty": "B9C8832B-EF66-4307-9085-F695B2DFB3B3",
            "ID_ListView": "F275FB68-94E1-4697-8C5E-1B83935916F4",
            "ID_CreatedBy": 1,
            "ID_LastModifiedBy": null,
            "DateCreated": "2021-01-05T11:49:57.470Z",
            "DateModified": null,
            "DataSource": null,
            "Format": null,
            "Width": null,
            "Fixed": null,
            "VisibleIndex": 1000,
            "IsAllowEdit": null,
            "ID_ControlType": null,
            "ID_ColumnAlignment": null,
            "IsVisible": true,
            "FixedPosition": null,
            "IsRequired": null,
            "ID_SummaryType": null,
            "IsAddModelClass": null,
            "GroupIndex": null,
            "IsFilter": null,
            "ID_FilterControlType": null,
            "ID_PropertyModel": null,
            "PropertyModel": null,
            "SummaryType": null
        }
    ]
}