{
    "Oid": "EEF30A35-381B-4CB6-B671-0C637FF7C70D",
    "Name": "vSalesInvoice_Lookup_ListView",
    "ID_Model": null,
    "DataSource": "SELECT * FROM vSalesInvoice_Lookup_ListView",
    "Comment": null,
    "ID_DetailView": null,
    "Model": null,
    "PrimaryKey": null,
    "Caption": null,
    "Details": [
        {
            "ID_PropertyType": 1,
            "Precision": null,
            "$DataSource": null,
            "DisplayProperty": null,
            "Oid": "B07FF4D9-4061-4A77-A035-0239A84CEAA6",
            "Code": null,
            "Name": "BusinessPartner",
            "IsActive": true,
            "Comment": null,
            "Caption": "Customer",
            "ID_ModelProperty": null,
            "ID_ListView": "EEF30A35-381B-4CB6-B671-0C637FF7C70D",
            "ID_CreatedBy": 1,
            "ID_LastModifiedBy": 1,
            "DateCreated": "2018-06-28T11:35:32.430Z",
            "DateModified": "2018-06-28T11:35:32.430Z",
            "DataSource": null,
            "Format": null,
            "Width": "166",
            "Fixed": null,
            "VisibleIndex": 0,
            "IsAllowEdit": null,
            "ID_ControlType": null,
            "ID_ColumnAlignment": null,
            "IsVisible": true,
            "FixedPosition": null,
            "IsRequired": null,
            "ID_SummaryType": null,
            "IsAddModelClass": null,
            "GroupIndex": null,
            "IsFilter": null,
            "ID_FilterControlType": null,
            "ID_PropertyModel": null,
            "PropertyModel": null,
            "SummaryType": null
        },
        {
            "ID_PropertyType": 3,
            "Precision": 2,
            "$DataSource": null,
            "DisplayProperty": null,
            "Oid": "CE145520-5641-4275-BDCD-16A19B02D3D9",
            "Code": null,
            "Name": "TotalAmount",
            "IsActive": true,
            "Comment": null,
            "Caption": "Total Amount",
            "ID_ModelProperty": null,
            "ID_ListView": "EEF30A35-381B-4CB6-B671-0C637FF7C70D",
            "ID_CreatedBy": 1,
            "ID_LastModifiedBy": 1,
            "DateCreated": "2018-06-28T11:35:32.430Z",
            "DateModified": "2018-06-28T11:35:32.430Z",
            "DataSource": null,
            "Format": null,
            "Width": "132",
            "Fixed": null,
            "VisibleIndex": 1000,
            "IsAllowEdit": null,
            "ID_ControlType": null,
            "ID_ColumnAlignment": null,
            "IsVisible": true,
            "FixedPosition": null,
            "IsRequired": null,
            "ID_SummaryType": null,
            "IsAddModelClass": null,
            "GroupIndex": null,
            "IsFilter": null,
            "ID_FilterControlType": null,
            "ID_PropertyModel": null,
            "PropertyModel": null,
            "SummaryType": null
        },
        {
            "ID_PropertyType": 2,
            "Precision": null,
            "$DataSource": null,
            "DisplayProperty": "FilingStatus",
            "Oid": "A63B9F14-88CE-4DDE-9431-182E989D8C7E",
            "Code": null,
            "Name": "ID_FilingStatus",
            "IsActive": true,
            "Comment": null,
            "Caption": "Filing Status",
            "ID_ModelProperty": null,
            "ID_ListView": "EEF30A35-381B-4CB6-B671-0C637FF7C70D",
            "ID_CreatedBy": 1,
            "ID_LastModifiedBy": 1,
            "DateCreated": "2018-06-28T11:35:32.430Z",
            "DateModified": "2018-06-28T11:35:32.430Z",
            "DataSource": null,
            "Format": null,
            "Width": null,
            "Fixed": null,
            "VisibleIndex": 600,
            "IsAllowEdit": null,
            "ID_ControlType": null,
            "ID_ColumnAlignment": null,
            "IsVisible": false,
            "FixedPosition": null,
            "IsRequired": null,
            "ID_SummaryType": null,
            "IsAddModelClass": true,
            "GroupIndex": null,
            "IsFilter": null,
            "ID_FilterControlType": null,
            "ID_PropertyModel": null,
            "PropertyModel": null,
            "SummaryType": null
        },
        {
            "ID_PropertyType": 5,
            "Precision": null,
            "$DataSource": null,
            "DisplayProperty": null,
            "Oid": "9B4E8F68-385E-4C67-AE1F-185356AED677",
            "Code": null,
            "Name": "DateCreated",
            "IsActive": true,
            "Comment": null,
            "Caption": "Date Created",
            "ID_ModelProperty": "3DB6C913-3CAA-4C72-8129-CC2A1C197C5E",
            "ID_ListView": "EEF30A35-381B-4CB6-B671-0C637FF7C70D",
            "ID_CreatedBy": 1,
            "ID_LastModifiedBy": 1,
            "DateCreated": "2018-06-28T11:35:32.430Z",
            "DateModified": "2018-06-28T11:35:32.430Z",
            "DataSource": null,
            "Format": null,
            "Width": "131",
            "Fixed": null,
            "VisibleIndex": 300,
            "IsAllowEdit": null,
            "ID_ControlType": null,
            "ID_ColumnAlignment": null,
            "IsVisible": true,
            "FixedPosition": null,
            "IsRequired": null,
            "ID_SummaryType": null,
            "IsAddModelClass": null,
            "GroupIndex": null,
            "IsFilter": null,
            "ID_FilterControlType": null,
            "ID_PropertyModel": null,
            "PropertyModel": null,
            "SummaryType": null
        },
        {
            "ID_PropertyType": 1,
            "Precision": null,
            "$DataSource": null,
            "DisplayProperty": null,
            "Oid": "4A2D1F2F-4B1E-4920-A662-19A2A6250D30",
            "Code": null,
            "Name": "ReferenceNo",
            "IsActive": true,
            "Comment": null,
            "Caption": "Reference No",
            "ID_ModelProperty": null,
            "ID_ListView": "EEF30A35-381B-4CB6-B671-0C637FF7C70D",
            "ID_CreatedBy": 1,
            "ID_LastModifiedBy": 1,
            "DateCreated": "2018-06-28T11:35:32.430Z",
            "DateModified": "2018-06-28T11:35:32.430Z",
            "DataSource": null,
            "Format": null,
            "Width": "133",
            "Fixed": null,
            "VisibleIndex": 200,
            "IsAllowEdit": null,
            "ID_ControlType": null,
            "ID_ColumnAlignment": null,
            "IsVisible": true,
            "FixedPosition": null,
            "IsRequired": null,
            "ID_SummaryType": null,
            "IsAddModelClass": null,
            "GroupIndex": null,
            "IsFilter": null,
            "ID_FilterControlType": null,
            "ID_PropertyModel": null,
            "PropertyModel": null,
            "SummaryType": null
        },
        {
            "ID_PropertyType": 1,
            "Precision": null,
            "$DataSource": null,
            "DisplayProperty": null,
            "Oid": "B45EBB06-F668-4689-8CB2-1D7C8CC6611E",
            "Code": null,
            "Name": "Name",
            "IsActive": true,
            "Comment": null,
            "Caption": "SI Number",
            "ID_ModelProperty": "255CB158-4F2B-4BF0-BAE2-1AD77BBEF457",
            "ID_ListView": "EEF30A35-381B-4CB6-B671-0C637FF7C70D",
            "ID_CreatedBy": 1,
            "ID_LastModifiedBy": 1,
            "DateCreated": "2018-06-28T11:35:32.430Z",
            "DateModified": "2018-06-28T11:35:32.430Z",
            "DataSource": null,
            "Format": null,
            "Width": "126",
            "Fixed": null,
            "VisibleIndex": 100,
            "IsAllowEdit": null,
            "ID_ControlType": null,
            "ID_ColumnAlignment": null,
            "IsVisible": true,
            "FixedPosition": null,
            "IsRequired": null,
            "ID_SummaryType": null,
            "IsAddModelClass": null,
            "GroupIndex": null,
            "IsFilter": null,
            "ID_FilterControlType": null,
            "ID_PropertyModel": null,
            "PropertyModel": null,
            "SummaryType": null
        },
        {
            "ID_PropertyType": 3,
            "Precision": 2,
            "$DataSource": null,
            "DisplayProperty": null,
            "Oid": "56F2A75C-02CF-46F9-B88A-666F567753D2",
            "Code": null,
            "Name": "Subtotal",
            "IsActive": true,
            "Comment": null,
            "Caption": null,
            "ID_ModelProperty": null,
            "ID_ListView": "EEF30A35-381B-4CB6-B671-0C637FF7C70D",
            "ID_CreatedBy": 1,
            "ID_LastModifiedBy": 1,
            "DateCreated": "2018-06-28T11:35:32.430Z",
            "DateModified": "2018-06-28T11:35:32.430Z",
            "DataSource": null,
            "Format": null,
            "Width": "107",
            "Fixed": null,
            "VisibleIndex": 900,
            "IsAllowEdit": null,
            "ID_ControlType": null,
            "ID_ColumnAlignment": null,
            "IsVisible": true,
            "FixedPosition": null,
            "IsRequired": null,
            "ID_SummaryType": null,
            "IsAddModelClass": null,
            "GroupIndex": null,
            "IsFilter": null,
            "ID_FilterControlType": null,
            "ID_PropertyModel": null,
            "PropertyModel": null,
            "SummaryType": null
        },
        {
            "ID_PropertyType": 3,
            "Precision": 2,
            "$DataSource": null,
            "DisplayProperty": null,
            "Oid": "880D8E6E-298B-4D66-95F0-772F0020DB9F",
            "Code": null,
            "Name": "VATAmount",
            "IsActive": true,
            "Comment": null,
            "Caption": "Vat Amount",
            "ID_ModelProperty": null,
            "ID_ListView": "EEF30A35-381B-4CB6-B671-0C637FF7C70D",
            "ID_CreatedBy": 1,
            "ID_LastModifiedBy": 1,
            "DateCreated": "2018-06-28T11:35:32.430Z",
            "DateModified": "2018-06-28T11:35:32.430Z",
            "DataSource": null,
            "Format": null,
            "Width": "126",
            "Fixed": null,
            "VisibleIndex": 800,
            "IsAllowEdit": null,
            "ID_ControlType": null,
            "ID_ColumnAlignment": null,
            "IsVisible": true,
            "FixedPosition": null,
            "IsRequired": null,
            "ID_SummaryType": null,
            "IsAddModelClass": null,
            "GroupIndex": null,
            "IsFilter": null,
            "ID_FilterControlType": null,
            "ID_PropertyModel": null,
            "PropertyModel": null,
            "SummaryType": null
        },
        {
            "ID_PropertyType": 2,
            "Precision": null,
            "$DataSource": null,
            "DisplayProperty": null,
            "Oid": "6B38C3F7-8DD9-4E8A-9558-97FE45BF088F",
            "Code": null,
            "Name": "ID_BusinessPartner",
            "IsActive": true,
            "Comment": null,
            "Caption": null,
            "ID_ModelProperty": "EC0D0500-6CDF-4EAF-8198-88459326C929",
            "ID_ListView": "EEF30A35-381B-4CB6-B671-0C637FF7C70D",
            "ID_CreatedBy": 1,
            "ID_LastModifiedBy": 1,
            "DateCreated": "2018-06-28T11:35:32.430Z",
            "DateModified": "2018-06-28T11:35:32.430Z",
            "DataSource": null,
            "Format": null,
            "Width": null,
            "Fixed": null,
            "VisibleIndex": 500,
            "IsAllowEdit": null,
            "ID_ControlType": null,
            "ID_ColumnAlignment": null,
            "IsVisible": false,
            "FixedPosition": null,
            "IsRequired": null,
            "ID_SummaryType": null,
            "IsAddModelClass": null,
            "GroupIndex": null,
            "IsFilter": null,
            "ID_FilterControlType": null,
            "ID_PropertyModel": null,
            "PropertyModel": null,
            "SummaryType": null
        },
        {
            "ID_PropertyType": 2,
            "Precision": null,
            "$DataSource": null,
            "DisplayProperty": null,
            "Oid": "FCD9EE17-220B-4B55-9C3C-A2FC89A6032F",
            "Code": null,
            "Name": "SIBalance",
            "IsActive": true,
            "Comment": null,
            "Caption": "Remaining Balance",
            "ID_ModelProperty": null,
            "ID_ListView": "EEF30A35-381B-4CB6-B671-0C637FF7C70D",
            "ID_CreatedBy": 1,
            "ID_LastModifiedBy": 1,
            "DateCreated": "2018-06-28T11:35:32.430Z",
            "DateModified": "2018-06-28T11:35:32.430Z",
            "DataSource": null,
            "Format": null,
            "Width": "113",
            "Fixed": null,
            "VisibleIndex": 700,
            "IsAllowEdit": null,
            "ID_ControlType": null,
            "ID_ColumnAlignment": null,
            "IsVisible": true,
            "FixedPosition": null,
            "IsRequired": null,
            "ID_SummaryType": null,
            "IsAddModelClass": null,
            "GroupIndex": null,
            "IsFilter": null,
            "ID_FilterControlType": null,
            "ID_PropertyModel": null,
            "PropertyModel": null,
            "SummaryType": null
        },
        {
            "ID_PropertyType": 2,
            "Precision": null,
            "$DataSource": null,
            "DisplayProperty": null,
            "Oid": "EFEE69AB-7BDA-440A-A14B-F240340BF572",
            "Code": null,
            "Name": "ID",
            "IsActive": true,
            "Comment": null,
            "Caption": null,
            "ID_ModelProperty": "31167A18-283B-4DA6-87AD-30495C4EB737",
            "ID_ListView": "EEF30A35-381B-4CB6-B671-0C637FF7C70D",
            "ID_CreatedBy": 1,
            "ID_LastModifiedBy": 1,
            "DateCreated": "2018-06-28T11:35:32.430Z",
            "DateModified": "2018-06-28T11:35:32.430Z",
            "DataSource": null,
            "Format": null,
            "Width": "66",
            "Fixed": true,
            "VisibleIndex": 400,
            "IsAllowEdit": null,
            "ID_ControlType": null,
            "ID_ColumnAlignment": null,
            "IsVisible": true,
            "FixedPosition": "left",
            "IsRequired": null,
            "ID_SummaryType": null,
            "IsAddModelClass": null,
            "GroupIndex": null,
            "IsFilter": null,
            "ID_FilterControlType": null,
            "ID_PropertyModel": null,
            "PropertyModel": null,
            "SummaryType": null
        }
    ]
}