{
    "Oid": "36E7A244-EC44-490D-8CF4-0F41A53EED94",
    "Code": null,
    "Name": "ItemType_DetailView",
    "IsActive": true,
    "Comment": null,
    "ID_CreatedBy": 1,
    "ID_LastModifiedBy": null,
    "DateCreated": "2020-08-26T19:42:57.887Z",
    "DateModified": null,
    "ID_Model": "9F6DEFF6-8832-4BB9-968E-02085EA25EC6",
    "ModelName": "ItemType",
    "Caption": "ItemType",
    "Details": [
        {
            "SeqNo": 100,
            "ID_PropertyType": null,
            "ValueExpr": "ID",
            "GroupIndex": -1,
            "DataSourceKey": null,
            "DataSource": null,
            "DisplayProperty": null,
            "Oid": "10FE1891-8EAB-4A09-A684-80CA3C263DCA",
            "Code": null,
            "Name": "GeneralTab",
            "IsActive": true,
            "Comment": null,
            "Caption": "General",
            "ID_ModelProperty": null,
            "ID_DetailView": "36E7A244-EC44-490D-8CF4-0F41A53EED94",
            "ID_Tab": null,
            "ID_Section": null,
            "ID_ControlType": 12,
            "Format": null,
            "ID_CreatedBy": 1,
            "ID_LastModifiedBy": null,
            "DateCreated": "2020-08-26T19:42:57.903Z",
            "DateModified": null,
            "IsLoadData": null,
            "ColCount": null,
            "ColSpan": null,
            "IsDisabled": null,
            "Height": null,
            "ID_ListView": null,
            "IsReadOnly": null,
            "ID_LabelLocation": null,
            "IsShowLabel": null,
            "IsRequired": null,
            "DisplayExpr": null,
            "ID_LookUp_ListView": null,
            "LookUp_ListView_Caption": null,
            "LookUp_ListView_DataSource": null,
            "SearchExpr": null,
            "Precision": null,
            "ID_Parent_Grid": null,
            "IsShowClearButton": null,
            "IsSearchEnabled": null,
            "InputMask": null,
            "ID_PropertyModel": null,
            "PropertyName": null,
            "PropertyModel": null,
            "ID_PropertyModel_DetailView": null,
            "ID_PropertyModel_DetailView_Height": null,
            "ID_PropertyModel_DetailView_Width": null,
            "PropertyModel_PrimaryKey": null,
            "PropertyModel_Caption": null,
            "ID_PropertyModel_ID_DetailView": null,
            "LookUpDataSource": null,
            "LookUp_ListView_PK": null,
            "LookUp_ListView_Model": null,
            "ID_ModelProperty_Key": null,
            "ModelProperty_Key": null,
            "IsAllowAdd": null,
            "ListViewDetailName": null
        },
        {
            "SeqNo": 100,
            "ID_PropertyType": null,
            "ValueExpr": "ID",
            "GroupIndex": -1,
            "DataSourceKey": null,
            "DataSource": null,
            "DisplayProperty": null,
            "Oid": "A94ED7E2-030E-44D0-B1EE-4AAAC2896162",
            "Code": null,
            "Name": "InfoSection",
            "IsActive": true,
            "Comment": null,
            "Caption": "Information",
            "ID_ModelProperty": null,
            "ID_DetailView": "36E7A244-EC44-490D-8CF4-0F41A53EED94",
            "ID_Tab": "10FE1891-8EAB-4A09-A684-80CA3C263DCA",
            "ID_Section": null,
            "ID_ControlType": 13,
            "Format": null,
            "ID_CreatedBy": 1,
            "ID_LastModifiedBy": null,
            "DateCreated": "2020-08-26T19:42:57.933Z",
            "DateModified": null,
            "IsLoadData": null,
            "ColCount": 1,
            "ColSpan": 3,
            "IsDisabled": null,
            "Height": null,
            "ID_ListView": null,
            "IsReadOnly": null,
            "ID_LabelLocation": null,
            "IsShowLabel": null,
            "IsRequired": null,
            "DisplayExpr": null,
            "ID_LookUp_ListView": null,
            "LookUp_ListView_Caption": null,
            "LookUp_ListView_DataSource": null,
            "SearchExpr": null,
            "Precision": null,
            "ID_Parent_Grid": null,
            "IsShowClearButton": null,
            "IsSearchEnabled": null,
            "InputMask": null,
            "ID_PropertyModel": null,
            "PropertyName": null,
            "PropertyModel": null,
            "ID_PropertyModel_DetailView": null,
            "ID_PropertyModel_DetailView_Height": null,
            "ID_PropertyModel_DetailView_Width": null,
            "PropertyModel_PrimaryKey": null,
            "PropertyModel_Caption": null,
            "ID_PropertyModel_ID_DetailView": null,
            "LookUpDataSource": null,
            "LookUp_ListView_PK": null,
            "LookUp_ListView_Model": null,
            "ID_ModelProperty_Key": null,
            "ModelProperty_Key": null,
            "IsAllowAdd": null,
            "ListViewDetailName": null
        },
        {
            "SeqNo": 200,
            "ID_PropertyType": null,
            "ValueExpr": "ID",
            "GroupIndex": -1,
            "DataSourceKey": null,
            "DataSource": null,
            "DisplayProperty": null,
            "Oid": "88DC2EAB-A3B3-4A3F-9CC0-C9222636E8CD",
            "Code": null,
            "Name": "StatusTab",
            "IsActive": true,
            "Comment": null,
            "Caption": "Status",
            "ID_ModelProperty": null,
            "ID_DetailView": "36E7A244-EC44-490D-8CF4-0F41A53EED94",
            "ID_Tab": null,
            "ID_Section": null,
            "ID_ControlType": 12,
            "Format": null,
            "ID_CreatedBy": 1,
            "ID_LastModifiedBy": null,
            "DateCreated": "2020-08-26T19:42:58.110Z",
            "DateModified": null,
            "IsLoadData": null,
            "ColCount": null,
            "ColSpan": null,
            "IsDisabled": null,
            "Height": null,
            "ID_ListView": null,
            "IsReadOnly": null,
            "ID_LabelLocation": null,
            "IsShowLabel": null,
            "IsRequired": null,
            "DisplayExpr": null,
            "ID_LookUp_ListView": null,
            "LookUp_ListView_Caption": null,
            "LookUp_ListView_DataSource": null,
            "SearchExpr": null,
            "Precision": null,
            "ID_Parent_Grid": null,
            "IsShowClearButton": null,
            "IsSearchEnabled": null,
            "InputMask": null,
            "ID_PropertyModel": null,
            "PropertyName": null,
            "PropertyModel": null,
            "ID_PropertyModel_DetailView": null,
            "ID_PropertyModel_DetailView_Height": null,
            "ID_PropertyModel_DetailView_Width": null,
            "PropertyModel_PrimaryKey": null,
            "PropertyModel_Caption": null,
            "ID_PropertyModel_ID_DetailView": null,
            "LookUpDataSource": null,
            "LookUp_ListView_PK": null,
            "LookUp_ListView_Model": null,
            "ID_ModelProperty_Key": null,
            "ModelProperty_Key": null,
            "IsAllowAdd": null,
            "ListViewDetailName": null
        },
        {
            "SeqNo": 300,
            "ID_PropertyType": null,
            "ValueExpr": "ID",
            "GroupIndex": -1,
            "DataSourceKey": null,
            "DataSource": null,
            "DisplayProperty": null,
            "Oid": "BE5748AF-6EF1-423C-A2AB-62FD789717F0",
            "Code": null,
            "Name": "CommentTab",
            "IsActive": true,
            "Comment": null,
            "Caption": "Comment",
            "ID_ModelProperty": null,
            "ID_DetailView": "36E7A244-EC44-490D-8CF4-0F41A53EED94",
            "ID_Tab": null,
            "ID_Section": null,
            "ID_ControlType": 12,
            "Format": null,
            "ID_CreatedBy": 1,
            "ID_LastModifiedBy": null,
            "DateCreated": "2020-08-26T19:42:58.143Z",
            "DateModified": null,
            "IsLoadData": null,
            "ColCount": null,
            "ColSpan": null,
            "IsDisabled": null,
            "Height": null,
            "ID_ListView": null,
            "IsReadOnly": null,
            "ID_LabelLocation": null,
            "IsShowLabel": null,
            "IsRequired": null,
            "DisplayExpr": null,
            "ID_LookUp_ListView": null,
            "LookUp_ListView_Caption": null,
            "LookUp_ListView_DataSource": null,
            "SearchExpr": null,
            "Precision": null,
            "ID_Parent_Grid": null,
            "IsShowClearButton": null,
            "IsSearchEnabled": null,
            "InputMask": null,
            "ID_PropertyModel": null,
            "PropertyName": null,
            "PropertyModel": null,
            "ID_PropertyModel_DetailView": null,
            "ID_PropertyModel_DetailView_Height": null,
            "ID_PropertyModel_DetailView_Width": null,
            "PropertyModel_PrimaryKey": null,
            "PropertyModel_Caption": null,
            "ID_PropertyModel_ID_DetailView": null,
            "LookUpDataSource": null,
            "LookUp_ListView_PK": null,
            "LookUp_ListView_Model": null,
            "ID_ModelProperty_Key": null,
            "ModelProperty_Key": null,
            "IsAllowAdd": null,
            "ListViewDetailName": null
        },
        {
            "SeqNo": 100,
            "ID_PropertyType": null,
            "ValueExpr": "ID",
            "GroupIndex": -1,
            "DataSourceKey": null,
            "DataSource": null,
            "DisplayProperty": null,
            "Oid": "E6D81FBB-36AB-46BA-B7F8-7A297CB06C8C",
            "Code": null,
            "Name": "StatusSectionA",
            "IsActive": true,
            "Comment": null,
            "Caption": "StatusSectionA",
            "ID_ModelProperty": null,
            "ID_DetailView": "36E7A244-EC44-490D-8CF4-0F41A53EED94",
            "ID_Tab": "88DC2EAB-A3B3-4A3F-9CC0-C9222636E8CD",
            "ID_Section": null,
            "ID_ControlType": 13,
            "Format": null,
            "ID_CreatedBy": 1,
            "ID_LastModifiedBy": null,
            "DateCreated": "2020-08-26T19:42:58.167Z",
            "DateModified": null,
            "IsLoadData": null,
            "ColCount": 1,
            "ColSpan": 5,
            "IsDisabled": null,
            "Height": null,
            "ID_ListView": null,
            "IsReadOnly": null,
            "ID_LabelLocation": null,
            "IsShowLabel": null,
            "IsRequired": null,
            "DisplayExpr": null,
            "ID_LookUp_ListView": null,
            "LookUp_ListView_Caption": null,
            "LookUp_ListView_DataSource": null,
            "SearchExpr": null,
            "Precision": null,
            "ID_Parent_Grid": null,
            "IsShowClearButton": null,
            "IsSearchEnabled": null,
            "InputMask": null,
            "ID_PropertyModel": null,
            "PropertyName": null,
            "PropertyModel": null,
            "ID_PropertyModel_DetailView": null,
            "ID_PropertyModel_DetailView_Height": null,
            "ID_PropertyModel_DetailView_Width": null,
            "PropertyModel_PrimaryKey": null,
            "PropertyModel_Caption": null,
            "ID_PropertyModel_ID_DetailView": null,
            "LookUpDataSource": null,
            "LookUp_ListView_PK": null,
            "LookUp_ListView_Model": null,
            "ID_ModelProperty_Key": null,
            "ModelProperty_Key": null,
            "IsAllowAdd": null,
            "ListViewDetailName": null
        },
        {
            "SeqNo": 200,
            "ID_PropertyType": null,
            "ValueExpr": "ID",
            "GroupIndex": -1,
            "DataSourceKey": null,
            "DataSource": null,
            "DisplayProperty": null,
            "Oid": "DECA18E3-6144-486C-A768-7C88AEF6D3E1",
            "Code": null,
            "Name": "StatusSectionB",
            "IsActive": true,
            "Comment": null,
            "Caption": "StatusSectionB",
            "ID_ModelProperty": null,
            "ID_DetailView": "36E7A244-EC44-490D-8CF4-0F41A53EED94",
            "ID_Tab": "88DC2EAB-A3B3-4A3F-9CC0-C9222636E8CD",
            "ID_Section": null,
            "ID_ControlType": 13,
            "Format": null,
            "ID_CreatedBy": 1,
            "ID_LastModifiedBy": null,
            "DateCreated": "2020-08-26T19:42:58.183Z",
            "DateModified": null,
            "IsLoadData": null,
            "ColCount": 1,
            "ColSpan": 5,
            "IsDisabled": null,
            "Height": null,
            "ID_ListView": null,
            "IsReadOnly": null,
            "ID_LabelLocation": null,
            "IsShowLabel": null,
            "IsRequired": null,
            "DisplayExpr": null,
            "ID_LookUp_ListView": null,
            "LookUp_ListView_Caption": null,
            "LookUp_ListView_DataSource": null,
            "SearchExpr": null,
            "Precision": null,
            "ID_Parent_Grid": null,
            "IsShowClearButton": null,
            "IsSearchEnabled": null,
            "InputMask": null,
            "ID_PropertyModel": null,
            "PropertyName": null,
            "PropertyModel": null,
            "ID_PropertyModel_DetailView": null,
            "ID_PropertyModel_DetailView_Height": null,
            "ID_PropertyModel_DetailView_Width": null,
            "PropertyModel_PrimaryKey": null,
            "PropertyModel_Caption": null,
            "ID_PropertyModel_ID_DetailView": null,
            "LookUpDataSource": null,
            "LookUp_ListView_PK": null,
            "LookUp_ListView_Model": null,
            "ID_ModelProperty_Key": null,
            "ModelProperty_Key": null,
            "IsAllowAdd": null,
            "ListViewDetailName": null
        },
        {
            "SeqNo": 1000,
            "ID_PropertyType": 5,
            "ValueExpr": "ID",
            "GroupIndex": -1,
            "DataSourceKey": null,
            "DataSource": null,
            "DisplayProperty": null,
            "Oid": "640F9A44-57E8-4F43-9212-1359A31B880E",
            "Code": null,
            "Name": "DateCreated",
            "IsActive": true,
            "Comment": null,
            "Caption": "Date Created",
            "ID_ModelProperty": "F4AE059A-FEEB-4DAF-94D4-D18F370145A1",
            "ID_DetailView": "36E7A244-EC44-490D-8CF4-0F41A53EED94",
            "ID_Tab": null,
            "ID_Section": "E6D81FBB-36AB-46BA-B7F8-7A297CB06C8C",
            "ID_ControlType": null,
            "Format": null,
            "ID_CreatedBy": 1,
            "ID_LastModifiedBy": null,
            "DateCreated": "2020-08-26T19:42:58.197Z",
            "DateModified": null,
            "IsLoadData": null,
            "ColCount": null,
            "ColSpan": 1,
            "IsDisabled": null,
            "Height": null,
            "ID_ListView": null,
            "IsReadOnly": true,
            "ID_LabelLocation": null,
            "IsShowLabel": null,
            "IsRequired": null,
            "DisplayExpr": null,
            "ID_LookUp_ListView": null,
            "LookUp_ListView_Caption": null,
            "LookUp_ListView_DataSource": null,
            "SearchExpr": null,
            "Precision": null,
            "ID_Parent_Grid": null,
            "IsShowClearButton": null,
            "IsSearchEnabled": null,
            "InputMask": null,
            "ID_PropertyModel": null,
            "PropertyName": "DateCreated",
            "PropertyModel": null,
            "ID_PropertyModel_DetailView": null,
            "ID_PropertyModel_DetailView_Height": null,
            "ID_PropertyModel_DetailView_Width": null,
            "PropertyModel_PrimaryKey": null,
            "PropertyModel_Caption": null,
            "ID_PropertyModel_ID_DetailView": null,
            "LookUpDataSource": null,
            "LookUp_ListView_PK": null,
            "LookUp_ListView_Model": null,
            "ID_ModelProperty_Key": null,
            "ModelProperty_Key": null,
            "IsAllowAdd": null,
            "ListViewDetailName": null
        },
        {
            "SeqNo": 1000,
            "ID_PropertyType": 1,
            "ValueExpr": "ID",
            "GroupIndex": -1,
            "DataSourceKey": null,
            "DataSource": null,
            "DisplayProperty": null,
            "Oid": "20A800AC-C1EC-4DD0-AB8A-4E0455784919",
            "Code": null,
            "Name": "Name",
            "IsActive": true,
            "Comment": null,
            "Caption": null,
            "ID_ModelProperty": "05E1E3F5-CBEB-4D8E-AFBF-92DBD283A829",
            "ID_DetailView": "36E7A244-EC44-490D-8CF4-0F41A53EED94",
            "ID_Tab": null,
            "ID_Section": "A94ED7E2-030E-44D0-B1EE-4AAAC2896162",
            "ID_ControlType": null,
            "Format": null,
            "ID_CreatedBy": 1,
            "ID_LastModifiedBy": null,
            "DateCreated": "2020-08-26T19:42:58.197Z",
            "DateModified": null,
            "IsLoadData": null,
            "ColCount": null,
            "ColSpan": 1,
            "IsDisabled": null,
            "Height": null,
            "ID_ListView": null,
            "IsReadOnly": null,
            "ID_LabelLocation": null,
            "IsShowLabel": null,
            "IsRequired": null,
            "DisplayExpr": null,
            "ID_LookUp_ListView": null,
            "LookUp_ListView_Caption": null,
            "LookUp_ListView_DataSource": null,
            "SearchExpr": null,
            "Precision": null,
            "ID_Parent_Grid": null,
            "IsShowClearButton": null,
            "IsSearchEnabled": null,
            "InputMask": null,
            "ID_PropertyModel": null,
            "PropertyName": "Name",
            "PropertyModel": null,
            "ID_PropertyModel_DetailView": null,
            "ID_PropertyModel_DetailView_Height": null,
            "ID_PropertyModel_DetailView_Width": null,
            "PropertyModel_PrimaryKey": null,
            "PropertyModel_Caption": null,
            "ID_PropertyModel_ID_DetailView": null,
            "LookUpDataSource": null,
            "LookUp_ListView_PK": null,
            "LookUp_ListView_Model": null,
            "ID_ModelProperty_Key": null,
            "ModelProperty_Key": null,
            "IsAllowAdd": null,
            "ListViewDetailName": null
        },
        {
            "SeqNo": 1000,
            "ID_PropertyType": 1,
            "ValueExpr": "ID",
            "GroupIndex": -1,
            "DataSourceKey": null,
            "DataSource": null,
            "DisplayProperty": null,
            "Oid": "517FB27E-06AB-4CDB-B15F-72E0862A96E3",
            "Code": null,
            "Name": "Comment",
            "IsActive": true,
            "Comment": null,
            "Caption": null,
            "ID_ModelProperty": "9FE0BB72-F7F7-4C1C-95C7-CFBEF2DA94BB",
            "ID_DetailView": "36E7A244-EC44-490D-8CF4-0F41A53EED94",
            "ID_Tab": "BE5748AF-6EF1-423C-A2AB-62FD789717F0",
            "ID_Section": null,
            "ID_ControlType": 2,
            "Format": null,
            "ID_CreatedBy": 1,
            "ID_LastModifiedBy": null,
            "DateCreated": "2020-08-26T19:42:58.197Z",
            "DateModified": null,
            "IsLoadData": null,
            "ColCount": null,
            "ColSpan": 3,
            "IsDisabled": null,
            "Height": 250,
            "ID_ListView": null,
            "IsReadOnly": null,
            "ID_LabelLocation": 2,
            "IsShowLabel": null,
            "IsRequired": null,
            "DisplayExpr": null,
            "ID_LookUp_ListView": null,
            "LookUp_ListView_Caption": null,
            "LookUp_ListView_DataSource": null,
            "SearchExpr": null,
            "Precision": null,
            "ID_Parent_Grid": null,
            "IsShowClearButton": null,
            "IsSearchEnabled": null,
            "InputMask": null,
            "ID_PropertyModel": null,
            "PropertyName": "Comment",
            "PropertyModel": null,
            "ID_PropertyModel_DetailView": null,
            "ID_PropertyModel_DetailView_Height": null,
            "ID_PropertyModel_DetailView_Width": null,
            "PropertyModel_PrimaryKey": null,
            "PropertyModel_Caption": null,
            "ID_PropertyModel_ID_DetailView": null,
            "LookUpDataSource": null,
            "LookUp_ListView_PK": null,
            "LookUp_ListView_Model": null,
            "ID_ModelProperty_Key": null,
            "ModelProperty_Key": null,
            "IsAllowAdd": null,
            "ListViewDetailName": null
        },
        {
            "SeqNo": 1000,
            "ID_PropertyType": 2,
            "ValueExpr": "ID",
            "GroupIndex": -1,
            "DataSourceKey": null,
            "DataSource": null,
            "DisplayProperty": "Company",
            "Oid": "6462F123-CD83-4931-BB79-9132220716D1",
            "Code": null,
            "Name": "ID_Company",
            "IsActive": true,
            "Comment": null,
            "Caption": "Company",
            "ID_ModelProperty": "63173464-1B42-4806-9A2E-E91B63108848",
            "ID_DetailView": "36E7A244-EC44-490D-8CF4-0F41A53EED94",
            "ID_Tab": null,
            "ID_Section": "E6D81FBB-36AB-46BA-B7F8-7A297CB06C8C",
            "ID_ControlType": null,
            "Format": null,
            "ID_CreatedBy": 1,
            "ID_LastModifiedBy": null,
            "DateCreated": "2020-08-26T19:42:58.197Z",
            "DateModified": null,
            "IsLoadData": null,
            "ColCount": null,
            "ColSpan": 1,
            "IsDisabled": null,
            "Height": null,
            "ID_ListView": null,
            "IsReadOnly": true,
            "ID_LabelLocation": null,
            "IsShowLabel": null,
            "IsRequired": null,
            "DisplayExpr": null,
            "ID_LookUp_ListView": null,
            "LookUp_ListView_Caption": null,
            "LookUp_ListView_DataSource": null,
            "SearchExpr": null,
            "Precision": null,
            "ID_Parent_Grid": null,
            "IsShowClearButton": null,
            "IsSearchEnabled": null,
            "InputMask": null,
            "ID_PropertyModel": null,
            "PropertyName": "ID_Company",
            "PropertyModel": null,
            "ID_PropertyModel_DetailView": null,
            "ID_PropertyModel_DetailView_Height": null,
            "ID_PropertyModel_DetailView_Width": null,
            "PropertyModel_PrimaryKey": null,
            "PropertyModel_Caption": null,
            "ID_PropertyModel_ID_DetailView": null,
            "LookUpDataSource": null,
            "LookUp_ListView_PK": null,
            "LookUp_ListView_Model": null,
            "ID_ModelProperty_Key": null,
            "ModelProperty_Key": null,
            "IsAllowAdd": null,
            "ListViewDetailName": null
        },
        {
            "SeqNo": 1000,
            "ID_PropertyType": 2,
            "ValueExpr": "ID",
            "GroupIndex": -1,
            "DataSourceKey": null,
            "DataSource": null,
            "DisplayProperty": "CreatedBy",
            "Oid": "92F6860E-5DCD-4E85-8BDE-9C3DC363F693",
            "Code": null,
            "Name": "ID_CreatedBy",
            "IsActive": true,
            "Comment": null,
            "Caption": "Created By",
            "ID_ModelProperty": "29716CDA-5B07-417A-B662-56B1D159B6A0",
            "ID_DetailView": "36E7A244-EC44-490D-8CF4-0F41A53EED94",
            "ID_Tab": null,
            "ID_Section": "E6D81FBB-36AB-46BA-B7F8-7A297CB06C8C",
            "ID_ControlType": null,
            "Format": null,
            "ID_CreatedBy": 1,
            "ID_LastModifiedBy": null,
            "DateCreated": "2020-08-26T19:42:58.197Z",
            "DateModified": null,
            "IsLoadData": null,
            "ColCount": null,
            "ColSpan": 1,
            "IsDisabled": null,
            "Height": null,
            "ID_ListView": null,
            "IsReadOnly": true,
            "ID_LabelLocation": null,
            "IsShowLabel": null,
            "IsRequired": null,
            "DisplayExpr": null,
            "ID_LookUp_ListView": null,
            "LookUp_ListView_Caption": null,
            "LookUp_ListView_DataSource": null,
            "SearchExpr": null,
            "Precision": null,
            "ID_Parent_Grid": null,
            "IsShowClearButton": null,
            "IsSearchEnabled": null,
            "InputMask": null,
            "ID_PropertyModel": null,
            "PropertyName": "ID_CreatedBy",
            "PropertyModel": null,
            "ID_PropertyModel_DetailView": null,
            "ID_PropertyModel_DetailView_Height": null,
            "ID_PropertyModel_DetailView_Width": null,
            "PropertyModel_PrimaryKey": null,
            "PropertyModel_Caption": null,
            "ID_PropertyModel_ID_DetailView": null,
            "LookUpDataSource": null,
            "LookUp_ListView_PK": null,
            "LookUp_ListView_Model": null,
            "ID_ModelProperty_Key": null,
            "ModelProperty_Key": null,
            "IsAllowAdd": null,
            "ListViewDetailName": null
        },
        {
            "SeqNo": 1000,
            "ID_PropertyType": 4,
            "ValueExpr": "ID",
            "GroupIndex": -1,
            "DataSourceKey": null,
            "DataSource": null,
            "DisplayProperty": null,
            "Oid": "E76BF32B-1A35-46D7-89F9-9CADFABDE367",
            "Code": null,
            "Name": "IsActive",
            "IsActive": true,
            "Comment": null,
            "Caption": "Active",
            "ID_ModelProperty": "C2838E2B-C1F3-40DE-8DB5-17997789B6C9",
            "ID_DetailView": "36E7A244-EC44-490D-8CF4-0F41A53EED94",
            "ID_Tab": null,
            "ID_Section": "A94ED7E2-030E-44D0-B1EE-4AAAC2896162",
            "ID_ControlType": 4,
            "Format": null,
            "ID_CreatedBy": 1,
            "ID_LastModifiedBy": null,
            "DateCreated": "2020-08-26T19:42:58.197Z",
            "DateModified": null,
            "IsLoadData": null,
            "ColCount": null,
            "ColSpan": 1,
            "IsDisabled": null,
            "Height": null,
            "ID_ListView": null,
            "IsReadOnly": null,
            "ID_LabelLocation": null,
            "IsShowLabel": null,
            "IsRequired": null,
            "DisplayExpr": null,
            "ID_LookUp_ListView": null,
            "LookUp_ListView_Caption": null,
            "LookUp_ListView_DataSource": null,
            "SearchExpr": null,
            "Precision": null,
            "ID_Parent_Grid": null,
            "IsShowClearButton": null,
            "IsSearchEnabled": null,
            "InputMask": null,
            "ID_PropertyModel": null,
            "PropertyName": "IsActive",
            "PropertyModel": null,
            "ID_PropertyModel_DetailView": null,
            "ID_PropertyModel_DetailView_Height": null,
            "ID_PropertyModel_DetailView_Width": null,
            "PropertyModel_PrimaryKey": null,
            "PropertyModel_Caption": null,
            "ID_PropertyModel_ID_DetailView": null,
            "LookUpDataSource": null,
            "LookUp_ListView_PK": null,
            "LookUp_ListView_Model": null,
            "ID_ModelProperty_Key": null,
            "ModelProperty_Key": null,
            "IsAllowAdd": null,
            "ListViewDetailName": null
        },
        {
            "SeqNo": 1000,
            "ID_PropertyType": 5,
            "ValueExpr": "ID",
            "GroupIndex": -1,
            "DataSourceKey": null,
            "DataSource": null,
            "DisplayProperty": null,
            "Oid": "3367C039-08F4-4F1F-AF04-A3C48AAD0D6B",
            "Code": null,
            "Name": "DateModified",
            "IsActive": true,
            "Comment": null,
            "Caption": "Date Modified",
            "ID_ModelProperty": "3E71B440-5235-43B2-82E0-97999E86DC8E",
            "ID_DetailView": "36E7A244-EC44-490D-8CF4-0F41A53EED94",
            "ID_Tab": null,
            "ID_Section": "DECA18E3-6144-486C-A768-7C88AEF6D3E1",
            "ID_ControlType": null,
            "Format": null,
            "ID_CreatedBy": 1,
            "ID_LastModifiedBy": null,
            "DateCreated": "2020-08-26T19:42:58.197Z",
            "DateModified": null,
            "IsLoadData": null,
            "ColCount": null,
            "ColSpan": 1,
            "IsDisabled": null,
            "Height": null,
            "ID_ListView": null,
            "IsReadOnly": true,
            "ID_LabelLocation": null,
            "IsShowLabel": null,
            "IsRequired": null,
            "DisplayExpr": null,
            "ID_LookUp_ListView": null,
            "LookUp_ListView_Caption": null,
            "LookUp_ListView_DataSource": null,
            "SearchExpr": null,
            "Precision": null,
            "ID_Parent_Grid": null,
            "IsShowClearButton": null,
            "IsSearchEnabled": null,
            "InputMask": null,
            "ID_PropertyModel": null,
            "PropertyName": "DateModified",
            "PropertyModel": null,
            "ID_PropertyModel_DetailView": null,
            "ID_PropertyModel_DetailView_Height": null,
            "ID_PropertyModel_DetailView_Width": null,
            "PropertyModel_PrimaryKey": null,
            "PropertyModel_Caption": null,
            "ID_PropertyModel_ID_DetailView": null,
            "LookUpDataSource": null,
            "LookUp_ListView_PK": null,
            "LookUp_ListView_Model": null,
            "ID_ModelProperty_Key": null,
            "ModelProperty_Key": null,
            "IsAllowAdd": null,
            "ListViewDetailName": null
        },
        {
            "SeqNo": 1000,
            "ID_PropertyType": 2,
            "ValueExpr": "ID",
            "GroupIndex": -1,
            "DataSourceKey": null,
            "DataSource": null,
            "DisplayProperty": "LastModifiedBy",
            "Oid": "52D632A1-ADA3-46A0-9FA1-A9DD315B9E8F",
            "Code": null,
            "Name": "ID_LastModifiedBy",
            "IsActive": true,
            "Comment": null,
            "Caption": "Last Modified By",
            "ID_ModelProperty": "21256FDC-3021-4EDC-AD14-7444D6502762",
            "ID_DetailView": "36E7A244-EC44-490D-8CF4-0F41A53EED94",
            "ID_Tab": null,
            "ID_Section": "DECA18E3-6144-486C-A768-7C88AEF6D3E1",
            "ID_ControlType": null,
            "Format": null,
            "ID_CreatedBy": 1,
            "ID_LastModifiedBy": null,
            "DateCreated": "2020-08-26T19:42:58.197Z",
            "DateModified": null,
            "IsLoadData": null,
            "ColCount": null,
            "ColSpan": 1,
            "IsDisabled": null,
            "Height": null,
            "ID_ListView": null,
            "IsReadOnly": true,
            "ID_LabelLocation": null,
            "IsShowLabel": null,
            "IsRequired": null,
            "DisplayExpr": null,
            "ID_LookUp_ListView": null,
            "LookUp_ListView_Caption": null,
            "LookUp_ListView_DataSource": null,
            "SearchExpr": null,
            "Precision": null,
            "ID_Parent_Grid": null,
            "IsShowClearButton": null,
            "IsSearchEnabled": null,
            "InputMask": null,
            "ID_PropertyModel": null,
            "PropertyName": "ID_LastModifiedBy",
            "PropertyModel": null,
            "ID_PropertyModel_DetailView": null,
            "ID_PropertyModel_DetailView_Height": null,
            "ID_PropertyModel_DetailView_Width": null,
            "PropertyModel_PrimaryKey": null,
            "PropertyModel_Caption": null,
            "ID_PropertyModel_ID_DetailView": null,
            "LookUpDataSource": null,
            "LookUp_ListView_PK": null,
            "LookUp_ListView_Model": null,
            "ID_ModelProperty_Key": null,
            "ModelProperty_Key": null,
            "IsAllowAdd": null,
            "ListViewDetailName": null
        },
        {
            "SeqNo": 1000,
            "ID_PropertyType": 1,
            "ValueExpr": "ID",
            "GroupIndex": -1,
            "DataSourceKey": null,
            "DataSource": null,
            "DisplayProperty": null,
            "Oid": "B845108D-ADE6-429A-A00C-AE56E6A1026F",
            "Code": null,
            "Name": "Code",
            "IsActive": true,
            "Comment": null,
            "Caption": null,
            "ID_ModelProperty": "3461A314-0489-426A-AC3F-FEAC23DC56BA",
            "ID_DetailView": "36E7A244-EC44-490D-8CF4-0F41A53EED94",
            "ID_Tab": null,
            "ID_Section": "A94ED7E2-030E-44D0-B1EE-4AAAC2896162",
            "ID_ControlType": null,
            "Format": null,
            "ID_CreatedBy": 1,
            "ID_LastModifiedBy": null,
            "DateCreated": "2020-08-26T19:42:58.197Z",
            "DateModified": null,
            "IsLoadData": null,
            "ColCount": null,
            "ColSpan": 1,
            "IsDisabled": null,
            "Height": null,
            "ID_ListView": null,
            "IsReadOnly": null,
            "ID_LabelLocation": null,
            "IsShowLabel": null,
            "IsRequired": null,
            "DisplayExpr": null,
            "ID_LookUp_ListView": null,
            "LookUp_ListView_Caption": null,
            "LookUp_ListView_DataSource": null,
            "SearchExpr": null,
            "Precision": null,
            "ID_Parent_Grid": null,
            "IsShowClearButton": null,
            "IsSearchEnabled": null,
            "InputMask": null,
            "ID_PropertyModel": null,
            "PropertyName": "Code",
            "PropertyModel": null,
            "ID_PropertyModel_DetailView": null,
            "ID_PropertyModel_DetailView_Height": null,
            "ID_PropertyModel_DetailView_Width": null,
            "PropertyModel_PrimaryKey": null,
            "PropertyModel_Caption": null,
            "ID_PropertyModel_ID_DetailView": null,
            "LookUpDataSource": null,
            "LookUp_ListView_PK": null,
            "LookUp_ListView_Model": null,
            "ID_ModelProperty_Key": null,
            "ModelProperty_Key": null,
            "IsAllowAdd": null,
            "ListViewDetailName": null
        }
    ]
}